[
	{
		"id": 1,
		"name": "Eaque corporis illum ut.",
		"description": "Inventore quae alias magnam sed qui sint velit est.\nSuscipit dolor ut omnis voluptate.\nExercitationem qui et temporibus dignissimos autem.\nSapiente recusandae illo maiores quasi.\nEt commodi harum voluptatem cum.",
		"created_at": "2019-06-19T02:54:26.8432984+00:00",
		"finished_at": "2020-02-01T17:12:48.2320357+00:00",
		"state": 3,
		"project_id": 62,
		"performer_id": 45
	},
	{
		"id": 2,
		"name": "Debitis quis ad quas voluptatem voluptatem.",
		"description": "Similique molestiae esse eius nihil repudiandae possimus eos ea nobis.\nEaque ipsam atque sequi dignissimos fugiat voluptate hic nihil.\nNatus officia quis.\nDeleniti sit earum eveniet.\nCumque magni quis eaque atque natus expedita ratione illum.",
		"created_at": "2019-06-18T19:31:15.7305157+00:00",
		"finished_at": "2019-08-09T03:39:45.9260941+00:00",
		"state": 1,
		"project_id": 78,
		"performer_id": 40
	},
	{
		"id": 3,
		"name": "Officia quas dolorem quod veniam vitae odit voluptates.",
		"description": "Ut et consequatur quo.\nIpsa rerum qui.\nDelectus sunt voluptatibus facilis facere minima repellat deserunt temporibus.",
		"created_at": "2019-06-19T00:56:43.7769054+00:00",
		"finished_at": "2020-03-31T17:26:25.5488334+00:00",
		"state": 3,
		"project_id": 18,
		"performer_id": 20
	},
	{
		"id": 4,
		"name": "Aut occaecati officiis dolor culpa porro.",
		"description": "Voluptatem ipsum deleniti quisquam est aut accusamus porro veritatis quia.\nOccaecati et excepturi eius temporibus quia distinctio aspernatur.\nSoluta qui consequuntur est possimus itaque dolores ut.\nFacilis occaecati cupiditate omnis cumque.",
		"created_at": "2019-06-19T01:01:47.178531+00:00",
		"finished_at": "2019-07-07T16:54:47.652519+00:00",
		"state": 3,
		"project_id": 43,
		"performer_id": 39
	},
	{
		"id": 5,
		"name": "Eos adipisci dignissimos minus non est est minus.",
		"description": "Possimus est asperiores repellendus tenetur placeat.\nDolor ipsa facere delectus tempore.\nUt eum esse et dolor delectus repudiandae vitae aut enim.\nDeleniti sint delectus saepe autem.",
		"created_at": "2019-06-18T21:44:18.0698455+00:00",
		"finished_at": "2020-01-11T08:49:06.1147075+00:00",
		"state": 2,
		"project_id": 44,
		"performer_id": 41
	},
	{
		"id": 6,
		"name": "Molestiae eos voluptatem architecto ducimus qui ratione dolores minima quis.",
		"description": "Molestias est vel ea ut dolorum ea mollitia in ipsam.\nSuscipit est nemo iusto dolor consequatur et laboriosam.\nEst tempora ut eligendi distinctio assumenda et.\nNeque voluptatum eum ipsa molestias qui aut.\nVoluptatem quos accusantium dicta minus mollitia accusamus quam natus reprehenderit.",
		"created_at": "2019-06-19T05:41:58.2439527+00:00",
		"finished_at": "2019-07-13T20:47:32.2851387+00:00",
		"state": 0,
		"project_id": 59,
		"performer_id": 38
	},
	{
		"id": 7,
		"name": "Ipsam ea voluptatem optio sed doloremque.",
		"description": "Atque est dolorem.\nSit non et officiis omnis.\nAut quia ea illum magni.\nConsequatur rerum rem eos ea.",
		"created_at": "2019-06-18T22:30:24.4886437+00:00",
		"finished_at": "2020-04-06T04:08:19.4473624+00:00",
		"state": 2,
		"project_id": 54,
		"performer_id": 23
	},
	{
		"id": 8,
		"name": "Impedit voluptas explicabo corporis.",
		"description": "Tenetur error nam aspernatur est reprehenderit velit tempore voluptatum ut.\nSint iste doloribus voluptatum est repudiandae voluptas exercitationem optio aut.\nTotam doloremque quidem doloribus animi.\nVoluptas porro earum aut.\nRerum quia nihil qui perspiciatis eos maxime.",
		"created_at": "2019-06-18T13:13:48.0369365+00:00",
		"finished_at": "2019-08-18T18:33:04.0028507+00:00",
		"state": 3,
		"project_id": 4,
		"performer_id": 50
	},
	{
		"id": 9,
		"name": "Et hic eos.",
		"description": "Accusamus quasi eum distinctio explicabo quidem praesentium.\nAutem quasi nisi possimus quia hic voluptas.\nVel assumenda harum quis laudantium unde quos qui.\nAutem est eos aut natus vero.\nExplicabo sit eos occaecati illo sint laborum quas.",
		"created_at": "2019-06-19T05:13:33.5085267+00:00",
		"finished_at": "2020-02-21T06:10:11.6567866+00:00",
		"state": 1,
		"project_id": 77,
		"performer_id": 5
	},
	{
		"id": 10,
		"name": "Dolorum ullam nesciunt consequuntur quis modi mollitia aliquid doloremque.",
		"description": "Quas ipsa magnam ratione.\nCulpa iusto non quisquam voluptates.\nEst ut non eligendi distinctio asperiores consequatur.",
		"created_at": "2019-06-19T03:12:10.2244718+00:00",
		"finished_at": "2019-11-30T07:39:05.548196+00:00",
		"state": 1,
		"project_id": 38,
		"performer_id": 31
	},
	{
		"id": 11,
		"name": "Molestiae est incidunt voluptate voluptas fugit ut consectetur et ut.",
		"description": "Laborum voluptas sit illum itaque.\nCorporis necessitatibus mollitia deleniti harum porro molestiae.\nNihil est unde quidem est molestiae nisi sint.",
		"created_at": "2019-06-19T01:51:09.9556734+00:00",
		"finished_at": "2020-03-02T05:36:44.7333661+00:00",
		"state": 3,
		"project_id": 82,
		"performer_id": 4
	},
	{
		"id": 12,
		"name": "Eveniet quos nulla iure itaque omnis.",
		"description": "Repellat enim non.\nDeserunt aut molestiae ex rerum fugiat qui est aut.\nAut eligendi aut quaerat explicabo impedit.\nPraesentium est inventore nostrum.\nVel quasi deserunt id sapiente iste voluptas est.\nArchitecto iure sequi suscipit voluptas et ab eveniet minima porro.",
		"created_at": "2019-06-18T16:15:01.0708943+00:00",
		"finished_at": "2020-06-16T01:51:37.2376377+00:00",
		"state": 3,
		"project_id": 80,
		"performer_id": 9
	},
	{
		"id": 13,
		"name": "Voluptate distinctio id saepe reprehenderit in sint quidem.",
		"description": "Et et ea voluptas laboriosam officiis ut.\nQuia deleniti itaque.\nEst molestiae magnam et nesciunt.\nQuos laboriosam officiis eum quia modi quia.",
		"created_at": "2019-06-18T22:52:57.3125985+00:00",
		"finished_at": "2019-12-18T07:55:17.6871524+00:00",
		"state": 1,
		"project_id": 45,
		"performer_id": 39
	},
	{
		"id": 14,
		"name": "Alias dicta necessitatibus laudantium aliquam nemo ipsam quia blanditiis.",
		"description": "Voluptate sunt perferendis voluptates vitae non.\nFacilis aliquam quidem aut consequatur magni facilis eaque.\nDolores iste libero totam est ea et dicta.\nIure sunt blanditiis deleniti laudantium.",
		"created_at": "2019-06-19T04:52:12.684684+00:00",
		"finished_at": "2020-01-10T12:43:21.1553498+00:00",
		"state": 3,
		"project_id": 35,
		"performer_id": 1
	},
	{
		"id": 15,
		"name": "Libero temporibus id aut.",
		"description": "Doloribus et accusantium nemo qui necessitatibus earum voluptas consequatur.\nMolestiae unde optio quia.\nDolorem autem voluptas ut.\nEt dolor dolor iusto qui iusto numquam est deserunt illo.",
		"created_at": "2019-06-19T05:35:39.1278368+00:00",
		"finished_at": "2019-11-19T22:55:57.5937339+00:00",
		"state": 0,
		"project_id": 16,
		"performer_id": 23
	},
	{
		"id": 16,
		"name": "Et officia atque exercitationem cum magnam magnam tenetur delectus.",
		"description": "Praesentium fugit eum.\nMolestiae suscipit est pariatur omnis quos ducimus et perspiciatis.",
		"created_at": "2019-06-19T08:17:51.9212834+00:00",
		"finished_at": "2019-07-30T10:04:52.8346427+00:00",
		"state": 1,
		"project_id": 10,
		"performer_id": 38
	},
	{
		"id": 17,
		"name": "Debitis aliquid dicta maiores sed molestiae quis.",
		"description": "Dolorum eos est consectetur quisquam nam illo illo.\nDebitis beatae maxime.\nNobis eius eos inventore nostrum autem eos.\nPariatur iusto saepe et quas ratione consequuntur aut.\nIpsam laudantium magni repudiandae accusamus.",
		"created_at": "2019-06-19T11:14:53.3658195+00:00",
		"finished_at": "2019-08-11T13:20:07.9679958+00:00",
		"state": 3,
		"project_id": 51,
		"performer_id": 9
	},
	{
		"id": 18,
		"name": "Harum quaerat impedit sed iure quia labore error rerum.",
		"description": "Aperiam qui assumenda at ut est nihil.\nReprehenderit eius occaecati molestiae quae tempore error et laborum officia.",
		"created_at": "2019-06-19T00:52:33.289883+00:00",
		"finished_at": "2019-10-01T11:01:10.4348622+00:00",
		"state": 2,
		"project_id": 6,
		"performer_id": 15
	},
	{
		"id": 19,
		"name": "Commodi quia cupiditate eum provident minus.",
		"description": "Qui eligendi minima earum aspernatur.\nRepellat a accusamus laudantium.\nEum laborum incidunt natus saepe et rem.",
		"created_at": "2019-06-18T15:02:11.4228438+00:00",
		"finished_at": "2019-07-22T10:20:53.1950958+00:00",
		"state": 0,
		"project_id": 17,
		"performer_id": 40
	},
	{
		"id": 20,
		"name": "Itaque aut sunt consectetur praesentium vel officiis aliquam vel.",
		"description": "Expedita quis reiciendis et suscipit facilis quo totam voluptatem.\nSuscipit et porro vero tenetur voluptate nesciunt in amet.\nNobis accusantium reiciendis veritatis enim maxime.\nSaepe vel fugiat vero.\nConsequatur est est labore magnam quidem iste eius.",
		"created_at": "2019-06-19T09:22:10.0481126+00:00",
		"finished_at": "2019-08-18T23:36:28.6312251+00:00",
		"state": 0,
		"project_id": 98,
		"performer_id": 35
	},
	{
		"id": 21,
		"name": "Itaque nulla tempore soluta natus ut officiis quod ut.",
		"description": "Sint laborum officia iusto qui sunt.\nSaepe harum fugit earum dolores porro.\nCupiditate voluptas delectus harum.\nMolestiae ea accusamus pariatur recusandae suscipit quidem repellat.\nNeque est perspiciatis dolorum sunt voluptas sit accusantium ut.",
		"created_at": "2019-06-19T05:22:03.1310877+00:00",
		"finished_at": "2019-08-13T20:19:45.0781131+00:00",
		"state": 0,
		"project_id": 86,
		"performer_id": 25
	},
	{
		"id": 22,
		"name": "Nemo quo voluptates eius eum.",
		"description": "Doloribus ab omnis expedita aut sit sunt animi.\nEt sunt voluptatem ipsa officiis qui dolores officiis.\nOptio ut magnam est.\nQuas inventore deserunt aspernatur omnis.",
		"created_at": "2019-06-19T11:25:05.5213807+00:00",
		"finished_at": "2020-02-05T18:55:20.4800762+00:00",
		"state": 3,
		"project_id": 27,
		"performer_id": 15
	},
	{
		"id": 23,
		"name": "Quisquam molestiae officia unde aut porro dolor libero odio illum.",
		"description": "Architecto hic et est omnis optio nam ea maiores.\nFugiat recusandae et blanditiis voluptatem id aliquam mollitia molestias dicta.\nAliquam nihil adipisci distinctio aut.\nVoluptatem sed ut natus dolores rerum ratione dolor.\nExpedita qui molestias saepe et quis ea voluptas debitis.",
		"created_at": "2019-06-19T04:13:04.7425884+00:00",
		"finished_at": "2020-02-25T00:45:14.5192575+00:00",
		"state": 2,
		"project_id": 12,
		"performer_id": 24
	},
	{
		"id": 24,
		"name": "Et ut maiores quis est aspernatur rem.",
		"description": "Facere quam laboriosam doloribus aliquid minima corrupti beatae cupiditate.\nLaborum et earum.\nAspernatur ipsam soluta vel minus iusto doloribus modi nulla voluptatem.\nImpedit ea magnam velit et.\nVero temporibus molestias.",
		"created_at": "2019-06-19T00:55:45.7456495+00:00",
		"finished_at": "2019-07-03T15:21:12.4682885+00:00",
		"state": 1,
		"project_id": 57,
		"performer_id": 32
	},
	{
		"id": 25,
		"name": "In deserunt consequatur voluptatem et facilis ut.",
		"description": "Ratione et quasi corporis non debitis.\nIn sit quo facilis sint ut aut.\nAperiam possimus et et veniam consectetur est optio aut dicta.\nOccaecati quod eius facere quaerat.\nEt dolorem illo sit.\nOmnis in harum vitae voluptas occaecati enim qui qui eos.",
		"created_at": "2019-06-19T11:20:33.5250295+00:00",
		"finished_at": "2019-12-19T02:15:19.7420083+00:00",
		"state": 1,
		"project_id": 7,
		"performer_id": 37
	},
	{
		"id": 26,
		"name": "Fuga rerum odit qui.",
		"description": "Ea voluptatem blanditiis iusto atque velit dolorem qui quae.\nQuis et velit et.\nNihil veniam ex rem non.",
		"created_at": "2019-06-19T06:29:17.4357513+00:00",
		"finished_at": "2020-05-05T04:18:47.9384479+00:00",
		"state": 3,
		"project_id": 69,
		"performer_id": 30
	},
	{
		"id": 27,
		"name": "Ratione veniam quia officiis officia non ut saepe asperiores.",
		"description": "Ad exercitationem ut aliquam illum nostrum dolore qui.\nNulla unde id et voluptatem dignissimos quis sed ipsam.\nEos ea molestiae dolorum id voluptatem ut nostrum eligendi.",
		"created_at": "2019-06-19T01:04:42.1751219+00:00",
		"finished_at": "2020-05-23T01:53:33.2415055+00:00",
		"state": 2,
		"project_id": 11,
		"performer_id": 50
	},
	{
		"id": 28,
		"name": "Omnis et et.",
		"description": "Nisi et aut.\nEius natus magni ratione totam.\nNulla tempore incidunt itaque rem.",
		"created_at": "2019-06-19T11:13:55.9574337+00:00",
		"finished_at": "2019-08-18T20:58:15.6252239+00:00",
		"state": 2,
		"project_id": 73,
		"performer_id": 22
	},
	{
		"id": 29,
		"name": "Delectus qui aut quod iusto quam ex.",
		"description": "Consequuntur impedit temporibus facere eum voluptatem.\nDistinctio aut odit velit ut.\nQui sequi aut ea nostrum soluta incidunt.\nInventore dolores doloribus iste reprehenderit unde facere est.",
		"created_at": "2019-06-19T05:04:33.1796538+00:00",
		"finished_at": "2020-03-15T00:00:22.2067056+00:00",
		"state": 2,
		"project_id": 59,
		"performer_id": 46
	},
	{
		"id": 30,
		"name": "Dicta quos non consequatur voluptas iste occaecati et et qui.",
		"description": "Officia sed voluptatem aperiam velit.\nVoluptas maiores illo enim vel et.\nEt adipisci doloribus porro unde aut ea.\nEnim perspiciatis eos ratione.\nDolorum est vel aspernatur vero sunt explicabo voluptas.\nEx quis sint nisi velit quis.",
		"created_at": "2019-06-19T02:51:18.646868+00:00",
		"finished_at": "2020-01-15T00:43:21.0902814+00:00",
		"state": 2,
		"project_id": 23,
		"performer_id": 31
	},
	{
		"id": 31,
		"name": "Necessitatibus et ipsum blanditiis ut eaque non quos ut.",
		"description": "Cum eum quidem est tenetur qui quisquam aut consequatur in.\nDolorum sed quia consequatur architecto neque sit ab recusandae.",
		"created_at": "2019-06-19T04:06:44.122467+00:00",
		"finished_at": "2020-02-16T00:48:28.7897216+00:00",
		"state": 0,
		"project_id": 21,
		"performer_id": 35
	},
	{
		"id": 32,
		"name": "Totam sequi quisquam velit adipisci deleniti enim ipsam voluptatem.",
		"description": "Consequatur dolores ipsa quia qui aperiam nesciunt cum.\nNam et facere non veritatis.\nEst tempora odit repellendus.",
		"created_at": "2019-06-18T20:38:40.3396+00:00",
		"finished_at": "2020-02-18T23:57:53.3847327+00:00",
		"state": 1,
		"project_id": 54,
		"performer_id": 29
	},
	{
		"id": 33,
		"name": "Est non vero aut alias ratione doloribus.",
		"description": "Aut est eum.\nVoluptates quos voluptatem sunt nihil omnis delectus voluptatum rerum.\nVoluptatibus occaecati aut.\nDolor numquam velit et aut repudiandae omnis.\nNon necessitatibus sunt beatae enim aut enim sunt animi.",
		"created_at": "2019-06-19T01:08:19.4949318+00:00",
		"finished_at": "2019-11-22T03:58:47.0830376+00:00",
		"state": 1,
		"project_id": 80,
		"performer_id": 26
	},
	{
		"id": 34,
		"name": "Qui ut voluptatum laudantium praesentium eaque nihil.",
		"description": "Expedita quo dolore.\nHarum vel porro rem explicabo veritatis delectus.\nDeleniti ut laudantium eos quia.\nAtque deleniti quibusdam tenetur maxime sed non ut quidem.",
		"created_at": "2019-06-19T02:57:32.1587695+00:00",
		"finished_at": "2019-07-13T06:32:44.7657468+00:00",
		"state": 1,
		"project_id": 70,
		"performer_id": 43
	},
	{
		"id": 35,
		"name": "Asperiores rerum quod eum ut aut excepturi.",
		"description": "Fugiat autem aut quod nam.\nTenetur expedita officia molestias qui hic aliquam cumque.\nIpsa consequatur consequatur.\nQuia architecto consequuntur officia quas quibusdam dignissimos et.\nConsequatur excepturi ea voluptatem optio perspiciatis quia hic adipisci totam.",
		"created_at": "2019-06-19T00:49:30.4213879+00:00",
		"finished_at": "2019-09-08T03:46:12.3863004+00:00",
		"state": 3,
		"project_id": 38,
		"performer_id": 37
	},
	{
		"id": 36,
		"name": "Voluptatem aliquam impedit.",
		"description": "Nam dolor impedit quia quas rerum.\nQuisquam a est architecto.",
		"created_at": "2019-06-18T16:10:44.6342185+00:00",
		"finished_at": "2019-10-16T15:48:51.3926217+00:00",
		"state": 2,
		"project_id": 85,
		"performer_id": 8
	},
	{
		"id": 37,
		"name": "Est sit nulla delectus deserunt.",
		"description": "Suscipit maxime et fuga quis expedita.\nEt consectetur amet voluptatem.\nDoloremque commodi velit maxime est cupiditate autem enim soluta.\nNemo accusamus natus.\nBeatae qui ut ut molestiae.",
		"created_at": "2019-06-18T14:12:14.9943882+00:00",
		"finished_at": "2020-03-26T22:24:15.3726075+00:00",
		"state": 3,
		"project_id": 57,
		"performer_id": 33
	},
	{
		"id": 38,
		"name": "Vel illo molestiae dolore vel id non voluptas vel.",
		"description": "Repellendus sed modi nisi dolorem in nesciunt quis reprehenderit deleniti.\nEt iusto placeat et accusantium culpa illo vel modi.\nAlias inventore pariatur occaecati ducimus sequi consequatur et consequatur.\nLaboriosam harum quam vitae accusantium eaque minus reiciendis.",
		"created_at": "2019-06-18T23:12:37.5942111+00:00",
		"finished_at": "2019-10-22T23:38:27.8952813+00:00",
		"state": 2,
		"project_id": 47,
		"performer_id": 50
	},
	{
		"id": 39,
		"name": "Perspiciatis velit nihil.",
		"description": "Voluptatum quis dolorem porro dolore ut quas qui qui.\nLaborum perferendis nam ipsa doloribus pariatur.",
		"created_at": "2019-06-18T12:37:49.0484269+00:00",
		"finished_at": "2019-09-14T08:44:53.6261382+00:00",
		"state": 0,
		"project_id": 47,
		"performer_id": 41
	},
	{
		"id": 40,
		"name": "Nam ut voluptates autem recusandae aliquid enim possimus.",
		"description": "Ut dolorem veniam autem qui exercitationem ullam unde nam et.\nDeserunt laudantium unde nisi sint.\nDoloribus excepturi dolor est facilis eos reprehenderit quam dolorem nihil.",
		"created_at": "2019-06-18T13:45:34.1045397+00:00",
		"finished_at": "2020-05-21T14:49:09.7580387+00:00",
		"state": 1,
		"project_id": 22,
		"performer_id": 5
	},
	{
		"id": 41,
		"name": "Veniam voluptatem velit in rem aut ut aut quis.",
		"description": "Earum vel hic rerum sequi.\nNostrum unde molestiae voluptate dolores eius deserunt nobis.\nTenetur similique officiis officia aut voluptas repellat totam expedita aut.\nQui quasi fugiat est autem.",
		"created_at": "2019-06-18T18:27:18.6437044+00:00",
		"finished_at": "2019-11-01T08:44:56.9010522+00:00",
		"state": 1,
		"project_id": 39,
		"performer_id": 50
	},
	{
		"id": 42,
		"name": "Sint cumque sed rerum doloremque libero omnis.",
		"description": "Omnis magni et.\nDolor laborum natus rerum ut exercitationem quo officiis voluptatem.\nPorro sequi et quia.\nEnim corrupti voluptatem atque est id laborum molestias velit perferendis.\nAt reiciendis animi.",
		"created_at": "2019-06-18T16:28:34.8616729+00:00",
		"finished_at": "2019-08-07T04:54:35.4676359+00:00",
		"state": 1,
		"project_id": 18,
		"performer_id": 12
	},
	{
		"id": 43,
		"name": "Minima ab sequi cumque eos similique et quia delectus id.",
		"description": "Harum eum est voluptatum.\nVoluptate qui ut est.\nEt dolorem aut ratione recusandae voluptatem odio vero ad rerum.\nSit aperiam libero exercitationem ut molestias ut dicta.\nFacilis non temporibus ea omnis.\nEnim autem repellendus adipisci.",
		"created_at": "2019-06-19T10:41:13.9045792+00:00",
		"finished_at": "2019-11-10T15:24:36.3765202+00:00",
		"state": 0,
		"project_id": 19,
		"performer_id": 6
	},
	{
		"id": 44,
		"name": "Magni impedit quo nam atque qui dolore.",
		"description": "Sit molestiae eveniet.\nVoluptatem nisi voluptatem aperiam vel.\nConsequatur placeat tenetur veritatis architecto vitae porro molestiae.\nDebitis ut iusto cumque saepe repudiandae quia similique blanditiis sunt.\nRepudiandae neque eum quia adipisci vero exercitationem.",
		"created_at": "2019-06-19T01:05:36.2834513+00:00",
		"finished_at": "2020-01-31T02:22:19.0123839+00:00",
		"state": 2,
		"project_id": 68,
		"performer_id": 1
	},
	{
		"id": 45,
		"name": "Laboriosam aut saepe ut ab dolores eveniet excepturi.",
		"description": "Est et magni.\nTempora alias odio doloremque est eos rerum omnis.\nQuia consequatur maxime accusamus eius repellendus ratione ullam aliquam.\nCorporis tenetur debitis.",
		"created_at": "2019-06-19T09:04:22.0186636+00:00",
		"finished_at": "2019-07-03T13:13:26.0218656+00:00",
		"state": 1,
		"project_id": 45,
		"performer_id": 4
	},
	{
		"id": 46,
		"name": "Qui debitis eum autem ut ex aspernatur et.",
		"description": "Itaque aut quisquam.\nDoloribus eaque sed ut aut saepe aliquam quia.",
		"created_at": "2019-06-18T20:35:23.0089183+00:00",
		"finished_at": "2019-10-04T18:30:17.8151064+00:00",
		"state": 3,
		"project_id": 90,
		"performer_id": 26
	},
	{
		"id": 47,
		"name": "Nemo omnis nemo occaecati architecto consequatur.",
		"description": "Libero quam officia quos perferendis velit voluptatem quasi qui dolore.\nEst eos voluptas sunt qui quibusdam vel dolor sed qui.\nExpedita veniam itaque doloremque.\nInventore blanditiis eum et.\nLaboriosam ullam mollitia.",
		"created_at": "2019-06-18T20:21:47.2086311+00:00",
		"finished_at": "2020-05-25T14:22:39.0602443+00:00",
		"state": 0,
		"project_id": 46,
		"performer_id": 28
	},
	{
		"id": 48,
		"name": "Quo dolore nihil ratione eaque.",
		"description": "Veritatis explicabo eum facere culpa voluptatem nihil voluptas corporis.\nMaiores sit quaerat laborum facere dolor eum.",
		"created_at": "2019-06-18T17:50:18.379267+00:00",
		"finished_at": "2020-06-05T19:43:12.7788192+00:00",
		"state": 2,
		"project_id": 5,
		"performer_id": 34
	},
	{
		"id": 49,
		"name": "Voluptatum consequuntur eum vitae sint inventore voluptas sunt.",
		"description": "Consectetur et aut enim reprehenderit minus labore nemo omnis.\nIpsum dolorum consequatur quia quia et illum adipisci quos consequatur.",
		"created_at": "2019-06-18T17:08:43.1495787+00:00",
		"finished_at": "2019-06-20T04:52:06.0589326+00:00",
		"state": 2,
		"project_id": 43,
		"performer_id": 28
	},
	{
		"id": 50,
		"name": "Cum voluptates eius modi et placeat.",
		"description": "Sint maiores modi sit earum occaecati molestias vero beatae dicta.\nEum dolor neque tempora.\nExcepturi quod adipisci quo earum enim consectetur.",
		"created_at": "2019-06-18T19:57:19.3034739+00:00",
		"finished_at": "2019-12-10T21:41:13.3673124+00:00",
		"state": 3,
		"project_id": 85,
		"performer_id": 27
	},
	{
		"id": 51,
		"name": "Ipsa et velit iusto itaque aperiam incidunt magni qui.",
		"description": "Rem nihil fugit ut ut facere asperiores est incidunt ratione.\nEnim delectus voluptates sint veniam est aut facilis quibusdam maxime.\nDoloremque ullam quis nihil voluptas.\nEt voluptatibus assumenda in.\nId eaque ipsam beatae maxime cum.\nAdipisci nihil ducimus voluptas nostrum voluptates totam.",
		"created_at": "2019-06-19T01:56:38.1622405+00:00",
		"finished_at": "2020-01-18T22:15:00.2544829+00:00",
		"state": 3,
		"project_id": 85,
		"performer_id": 35
	},
	{
		"id": 52,
		"name": "Autem a atque.",
		"description": "Autem aliquid repudiandae ea.\nAnimi sed ut exercitationem quia animi ipsa eveniet ut.",
		"created_at": "2019-06-19T01:29:27.3469911+00:00",
		"finished_at": "2020-05-02T20:58:32.282188+00:00",
		"state": 0,
		"project_id": 79,
		"performer_id": 19
	},
	{
		"id": 53,
		"name": "Eos illum et amet incidunt.",
		"description": "Voluptates et ut veritatis quo explicabo.\nUnde velit iure itaque asperiores.\nDelectus dignissimos ipsa.",
		"created_at": "2019-06-19T03:41:20.2785949+00:00",
		"finished_at": "2020-02-08T08:19:06.4837216+00:00",
		"state": 0,
		"project_id": 31,
		"performer_id": 41
	},
	{
		"id": 54,
		"name": "Repellendus sequi eligendi provident magnam minus molestiae doloremque.",
		"description": "Laudantium ipsa quo omnis maiores sapiente soluta recusandae quo.\nDoloremque ad dolores optio debitis quasi.\nAt occaecati rerum sit corrupti adipisci.\nRecusandae amet cum autem laudantium possimus tenetur voluptatem sed.\nId ut tempora dignissimos quia consequatur omnis odit blanditiis.",
		"created_at": "2019-06-18T14:33:42.5150553+00:00",
		"finished_at": "2020-05-29T02:38:07.8633882+00:00",
		"state": 1,
		"project_id": 46,
		"performer_id": 8
	},
	{
		"id": 55,
		"name": "Necessitatibus doloribus ullam voluptates enim incidunt rerum sit.",
		"description": "Quibusdam veniam rerum rem vitae quas debitis.\nMinus sapiente non voluptas itaque minus excepturi debitis.\nDoloremque excepturi eaque dolor.\nRatione perspiciatis minus eum molestiae qui.\nCorporis omnis quas laboriosam eum quia.\nDebitis harum autem dolor et esse a similique.",
		"created_at": "2019-06-18T12:19:38.7326564+00:00",
		"finished_at": "2020-04-23T18:45:08.5944992+00:00",
		"state": 3,
		"project_id": 31,
		"performer_id": 42
	},
	{
		"id": 56,
		"name": "Animi possimus veritatis.",
		"description": "In voluptatem aliquid et sed.\nQuas aut voluptate.\nAlias officia expedita sit magni consequatur ut in qui.\nVoluptas fuga illum sed quasi vel ipsum quos doloribus.\nCulpa provident saepe.",
		"created_at": "2019-06-19T08:23:03.8632412+00:00",
		"finished_at": "2019-10-22T17:55:13.1413093+00:00",
		"state": 2,
		"project_id": 70,
		"performer_id": 19
	},
	{
		"id": 57,
		"name": "Asperiores porro est.",
		"description": "Ut facilis nostrum.\nPorro rem omnis.\nOccaecati eveniet voluptate tenetur sit ut ea.\nAt perferendis sed eum numquam totam.\nProvident qui autem corporis perferendis quia quia blanditiis.\nMinus nihil pariatur molestiae cupiditate ipsum est occaecati voluptatem perferendis.",
		"created_at": "2019-06-19T02:27:35.5259702+00:00",
		"finished_at": "2020-05-06T12:45:35.5397935+00:00",
		"state": 1,
		"project_id": 17,
		"performer_id": 42
	},
	{
		"id": 58,
		"name": "Blanditiis optio illum vitae.",
		"description": "Molestias eveniet et hic omnis enim nisi dolorem placeat.\nIn dignissimos ducimus modi et.\nNon et soluta labore mollitia quia.",
		"created_at": "2019-06-18T12:14:13.9878552+00:00",
		"finished_at": "2020-04-24T14:39:24.6593441+00:00",
		"state": 3,
		"project_id": 85,
		"performer_id": 24
	},
	{
		"id": 59,
		"name": "Dignissimos ut fugit dolorem dolores dolorem iure optio nisi.",
		"description": "Modi aut ab deleniti.\nUt et ex sint expedita laborum omnis ut molestiae.",
		"created_at": "2019-06-19T06:15:35.0209533+00:00",
		"finished_at": "2019-09-27T13:36:47.4225433+00:00",
		"state": 1,
		"project_id": 19,
		"performer_id": 48
	},
	{
		"id": 60,
		"name": "Sit iure quia molestiae dolor sequi et aut qui.",
		"description": "Consequuntur commodi dolore repellat.\nSuscipit qui aspernatur dolor consequatur labore id perspiciatis nulla.\nUnde et sequi aperiam.\nFugit odit hic aperiam quo odit nihil.\nQui quo ipsa nam.\nNon atque consectetur voluptatem molestiae reiciendis odit.",
		"created_at": "2019-06-19T02:22:06.7356209+00:00",
		"finished_at": "2020-02-26T17:56:21.7522647+00:00",
		"state": 2,
		"project_id": 66,
		"performer_id": 12
	},
	{
		"id": 61,
		"name": "Commodi tenetur cupiditate.",
		"description": "Numquam neque quo harum modi minima.\nAssumenda in asperiores.",
		"created_at": "2019-06-19T04:42:54.6312284+00:00",
		"finished_at": "2019-06-25T05:56:34.4280613+00:00",
		"state": 0,
		"project_id": 93,
		"performer_id": 9
	},
	{
		"id": 62,
		"name": "Aspernatur at necessitatibus delectus error tempore.",
		"description": "Odit illo tenetur quia quia molestiae dolor.\nAut voluptatem excepturi laudantium omnis consequatur ut voluptatem rem.\nId voluptatem iste aliquid temporibus eos dolores.\nAccusamus nemo inventore est.\nSint ullam temporibus odit odit omnis.",
		"created_at": "2019-06-18T15:54:31.3507405+00:00",
		"finished_at": "2019-07-24T23:02:33.3048774+00:00",
		"state": 2,
		"project_id": 18,
		"performer_id": 45
	},
	{
		"id": 63,
		"name": "Deleniti ut voluptatem dolor fugiat consequatur ea occaecati animi perferendis.",
		"description": "Ut ea ea quasi possimus ut.\nQuasi aut iste accusamus maxime veniam at deserunt neque.\nNihil nesciunt quas quae praesentium rerum et officia temporibus fugit.\nUt ut sequi aliquid ratione enim velit natus.\nQuisquam ut voluptas earum ea quia exercitationem sit modi minima.\nVoluptates id consectetur perferendis quibusdam velit velit consequatur rem.",
		"created_at": "2019-06-18T18:32:19.0973007+00:00",
		"finished_at": "2020-06-04T05:35:36.9268001+00:00",
		"state": 2,
		"project_id": 27,
		"performer_id": 2
	},
	{
		"id": 64,
		"name": "Officiis rem molestiae expedita.",
		"description": "Nobis suscipit deserunt velit consequatur molestias exercitationem.\nEt omnis eos omnis minus vero reprehenderit dicta.\nEt vel est voluptas non sed saepe dolores fuga voluptatem.",
		"created_at": "2019-06-19T05:21:59.3658851+00:00",
		"finished_at": "2019-10-27T08:58:35.7228005+00:00",
		"state": 1,
		"project_id": 73,
		"performer_id": 43
	},
	{
		"id": 65,
		"name": "Deleniti quasi aut dolores sint quia consequatur magni sint.",
		"description": "Praesentium vero qui.\nTempora voluptatem ut et sequi.\nRerum laboriosam voluptatem reiciendis et.\nNesciunt numquam optio repudiandae maxime dolore magni at accusantium.",
		"created_at": "2019-06-19T00:23:00.7635547+00:00",
		"finished_at": "2020-05-07T04:07:09.2921075+00:00",
		"state": 3,
		"project_id": 20,
		"performer_id": 16
	},
	{
		"id": 66,
		"name": "Doloribus eos tempora molestiae saepe hic.",
		"description": "Odit ut non dolores ut soluta at inventore error.\nSit facilis consequatur numquam qui.\nNemo quis dolor ut maiores voluptatem nisi.\nUt saepe inventore autem atque delectus quia et.",
		"created_at": "2019-06-18T14:17:43.4745006+00:00",
		"finished_at": "2020-02-05T08:56:10.3028194+00:00",
		"state": 3,
		"project_id": 83,
		"performer_id": 11
	},
	{
		"id": 67,
		"name": "Sed quaerat vel beatae et tempore velit nihil voluptatibus nobis.",
		"description": "Voluptas cumque odit quo necessitatibus occaecati pariatur et.\nDicta iste consectetur neque aut fuga inventore sunt animi.",
		"created_at": "2019-06-18T22:06:02.7742985+00:00",
		"finished_at": "2020-02-16T01:18:26.8714591+00:00",
		"state": 0,
		"project_id": 69,
		"performer_id": 23
	},
	{
		"id": 68,
		"name": "Est ut laudantium iure fuga id eaque voluptatum aspernatur accusamus.",
		"description": "Est assumenda architecto et numquam.\nNumquam illo libero minus minus earum quia nesciunt magnam.",
		"created_at": "2019-06-18T18:31:40.8203516+00:00",
		"finished_at": "2019-09-18T13:10:08.9875487+00:00",
		"state": 3,
		"project_id": 64,
		"performer_id": 31
	},
	{
		"id": 69,
		"name": "Id aperiam cum eos esse ut id.",
		"description": "Ut consequatur aut cupiditate dolores ut et neque accusantium fugiat.\nSoluta deleniti aut non voluptates corrupti sapiente vel repellendus maxime.\nDicta qui animi nihil ut vel id quam.\nVoluptatem qui veritatis et temporibus ducimus dignissimos officia alias.\nModi animi assumenda aspernatur quibusdam et veritatis quam nihil ratione.\nDistinctio magni dolores sed veniam architecto molestiae et omnis est.",
		"created_at": "2019-06-18T14:49:20.796051+00:00",
		"finished_at": "2019-12-09T11:43:23.4076839+00:00",
		"state": 1,
		"project_id": 38,
		"performer_id": 3
	},
	{
		"id": 70,
		"name": "Sed nulla nemo.",
		"description": "Ipsam et et dicta.\nQui ut ad necessitatibus id.\nNon consequatur molestias quis sint nesciunt ducimus ad.\nRepellat id nihil itaque sed nesciunt soluta et.",
		"created_at": "2019-06-18T16:14:27.5054031+00:00",
		"finished_at": "2020-04-14T12:29:52.7584114+00:00",
		"state": 2,
		"project_id": 97,
		"performer_id": 21
	},
	{
		"id": 71,
		"name": "Rerum consequuntur porro expedita quia aliquid possimus vel ipsam.",
		"description": "Exercitationem expedita voluptas ratione architecto.\nCorrupti provident incidunt dicta.\nNumquam commodi perspiciatis at dolores culpa quia.",
		"created_at": "2019-06-19T01:03:39.7290444+00:00",
		"finished_at": "2019-08-04T07:24:59.5908751+00:00",
		"state": 3,
		"project_id": 93,
		"performer_id": 28
	},
	{
		"id": 72,
		"name": "Voluptatem praesentium eos in.",
		"description": "Aut libero deserunt ut assumenda quo et ducimus sequi sunt.\nDeleniti voluptas omnis enim iure.",
		"created_at": "2019-06-19T02:22:01.6897365+00:00",
		"finished_at": "2020-04-12T03:37:37.0029817+00:00",
		"state": 3,
		"project_id": 80,
		"performer_id": 8
	},
	{
		"id": 73,
		"name": "Id accusantium ad et iste eligendi sequi.",
		"description": "Est nesciunt eos in sit natus voluptas.\nMaiores vero explicabo ipsum et ut.",
		"created_at": "2019-06-19T04:06:01.3656787+00:00",
		"finished_at": "2020-04-02T22:07:53.2740973+00:00",
		"state": 2,
		"project_id": 36,
		"performer_id": 7
	},
	{
		"id": 74,
		"name": "Dolorem quis quidem enim dolores unde.",
		"description": "Quibusdam doloremque voluptatibus perspiciatis inventore possimus repellat.\nEt ullam quia sint et in.",
		"created_at": "2019-06-19T10:41:37.9995915+00:00",
		"finished_at": "2019-11-14T18:49:19.7653731+00:00",
		"state": 3,
		"project_id": 18,
		"performer_id": 3
	},
	{
		"id": 75,
		"name": "Non sit modi non nihil officiis nesciunt ab sunt.",
		"description": "Aut quae eos sequi eum hic.\nEum fugit fuga odio.\nQuas ipsum aut reiciendis velit quidem necessitatibus.\nEnim sapiente et voluptate explicabo excepturi ut accusantium maiores.",
		"created_at": "2019-06-18T20:59:23.4743498+00:00",
		"finished_at": "2020-05-04T19:20:00.5748085+00:00",
		"state": 3,
		"project_id": 55,
		"performer_id": 11
	},
	{
		"id": 76,
		"name": "Voluptatibus dolorem nulla nemo optio.",
		"description": "Asperiores vel nam et omnis reiciendis maiores omnis nesciunt.\nVoluptatibus minus inventore.",
		"created_at": "2019-06-19T10:30:36.1022205+00:00",
		"finished_at": "2020-02-17T05:52:10.4615873+00:00",
		"state": 1,
		"project_id": 98,
		"performer_id": 15
	},
	{
		"id": 77,
		"name": "Dolores culpa cupiditate voluptas quibusdam reprehenderit.",
		"description": "Unde eaque omnis omnis voluptates.\nNon exercitationem occaecati officia ea sint.\nHic velit ducimus.\nVel saepe nihil doloribus est.\nEaque nihil maxime delectus itaque excepturi perferendis harum iusto.\nIn et rerum modi.",
		"created_at": "2019-06-18T17:51:26.900611+00:00",
		"finished_at": "2019-09-11T02:23:39.8336298+00:00",
		"state": 3,
		"project_id": 27,
		"performer_id": 47
	},
	{
		"id": 78,
		"name": "Suscipit ut ratione aliquam voluptatibus quis iusto aut.",
		"description": "Consequatur suscipit reprehenderit quis omnis dolorem excepturi.\nDolorem et enim.\nMolestias a molestiae libero facilis occaecati magnam modi aut.\nEnim ut tempora reiciendis.\nUt omnis atque modi aut tempore.\nUt aut vero doloremque expedita dolor.",
		"created_at": "2019-06-18T17:53:34.2398945+00:00",
		"finished_at": "2019-07-10T18:59:19.434232+00:00",
		"state": 1,
		"project_id": 23,
		"performer_id": 31
	},
	{
		"id": 79,
		"name": "Iusto illo veniam.",
		"description": "Voluptatem quos ratione et.\nMinima minima nobis non iure aut aspernatur est.\nVel laborum et totam molestias rerum ad dolorem facilis.\nEst quae ex cupiditate.\nAlias architecto illo omnis eos beatae commodi rerum vero.",
		"created_at": "2019-06-18T16:22:50.9486414+00:00",
		"finished_at": "2020-01-31T19:30:13.588816+00:00",
		"state": 3,
		"project_id": 88,
		"performer_id": 44
	},
	{
		"id": 80,
		"name": "Quia omnis maxime.",
		"description": "Alias ex suscipit aut doloribus at.\nNulla ut aut rerum et possimus illum quia ipsam.",
		"created_at": "2019-06-19T07:12:50.5830231+00:00",
		"finished_at": "2020-03-18T00:33:15.2556859+00:00",
		"state": 1,
		"project_id": 1,
		"performer_id": 37
	},
	{
		"id": 81,
		"name": "Error in fugit ut voluptatem cupiditate recusandae quod voluptatem sint.",
		"description": "Tempora omnis autem et ullam ullam vitae eos facilis id.\nRepellendus quis eius sint maiores maxime blanditiis excepturi ullam laudantium.\nOmnis vel et adipisci enim asperiores ad ut.\nAperiam voluptate et et et non laborum laboriosam fuga cum.",
		"created_at": "2019-06-19T02:47:07.8908805+00:00",
		"finished_at": "2019-07-16T15:58:00.5839926+00:00",
		"state": 2,
		"project_id": 53,
		"performer_id": 15
	},
	{
		"id": 82,
		"name": "Quia laboriosam magni voluptas delectus reiciendis.",
		"description": "Odit maiores dicta officia exercitationem est voluptates autem.\nDeserunt ducimus praesentium dolores sed necessitatibus.\nMolestias dolorem aut cumque quia recusandae temporibus.\nProvident vitae quae.",
		"created_at": "2019-06-18T23:47:09.7654623+00:00",
		"finished_at": "2019-09-10T09:31:30.0799198+00:00",
		"state": 0,
		"project_id": 59,
		"performer_id": 33
	},
	{
		"id": 83,
		"name": "Hic dolore et laudantium.",
		"description": "Dolorem quo recusandae atque.\nMagni et tempore distinctio perferendis.\nMagnam eos enim quia adipisci.\nIllo numquam est.\nAliquam vitae praesentium est quos sequi.\nDolore eaque qui eveniet quia et nesciunt explicabo at in.",
		"created_at": "2019-06-19T02:55:33.0626722+00:00",
		"finished_at": "2019-09-25T05:45:39.5703451+00:00",
		"state": 1,
		"project_id": 60,
		"performer_id": 40
	},
	{
		"id": 84,
		"name": "Commodi sequi vitae.",
		"description": "Natus enim illo architecto voluptas voluptates.\nVoluptatum debitis temporibus aut sint molestiae fuga accusamus iusto.",
		"created_at": "2019-06-19T09:13:47.530818+00:00",
		"finished_at": "2020-02-17T07:57:17.3896733+00:00",
		"state": 1,
		"project_id": 81,
		"performer_id": 23
	},
	{
		"id": 85,
		"name": "Atque explicabo fuga ratione ipsa officia.",
		"description": "Possimus distinctio perferendis iure quos dolorem et voluptatum eum.\nAspernatur minus dolore laboriosam vel cumque praesentium aut sit.\nQuo blanditiis consequatur excepturi quod.\nReiciendis aut aut molestias temporibus mollitia consequuntur.\nRepellat illum eos.",
		"created_at": "2019-06-19T05:23:54.415872+00:00",
		"finished_at": "2019-12-12T02:45:00.1631795+00:00",
		"state": 3,
		"project_id": 91,
		"performer_id": 32
	},
	{
		"id": 86,
		"name": "Neque et ducimus eos neque.",
		"description": "Nostrum voluptatem ut tenetur corporis.\nQuas est maiores nulla cumque.\nQuia inventore et id magni.\nError voluptas veritatis quos ut.\nEligendi esse omnis provident fugit animi ut qui.",
		"created_at": "2019-06-18T17:54:48.7174037+00:00",
		"finished_at": "2020-06-04T23:42:59.6999791+00:00",
		"state": 2,
		"project_id": 36,
		"performer_id": 27
	},
	{
		"id": 87,
		"name": "Atque nemo asperiores.",
		"description": "Dolor porro provident deleniti voluptatem omnis in qui et veniam.\nRepudiandae sint voluptatem necessitatibus sint ut sed eum est.\nAlias neque natus illo maxime delectus est.",
		"created_at": "2019-06-18T17:40:04.1266644+00:00",
		"finished_at": "2019-12-19T00:18:52.2378088+00:00",
		"state": 3,
		"project_id": 91,
		"performer_id": 42
	},
	{
		"id": 88,
		"name": "Iure eius fugit.",
		"description": "Qui fugiat placeat.\nDebitis cumque provident ut ut aut.",
		"created_at": "2019-06-18T19:00:13.324112+00:00",
		"finished_at": "2019-09-17T21:02:04.4774621+00:00",
		"state": 2,
		"project_id": 79,
		"performer_id": 19
	},
	{
		"id": 89,
		"name": "Qui ad fuga consequatur.",
		"description": "Vel facere ex nihil reiciendis.\nMolestiae eligendi ex consectetur ut sint dignissimos natus omnis.\nPerspiciatis veniam vero cupiditate in veritatis nulla aperiam explicabo.\nDebitis aliquid blanditiis.",
		"created_at": "2019-06-18T22:25:40.2120976+00:00",
		"finished_at": "2020-06-09T03:44:27.8962901+00:00",
		"state": 0,
		"project_id": 40,
		"performer_id": 5
	},
	{
		"id": 90,
		"name": "Officiis neque est non quaerat dolor et nihil perferendis delectus.",
		"description": "Et unde laborum quod totam est iste.\nNatus ut enim fugit ut aut placeat et quia.\nNecessitatibus non in labore tempora.\nAsperiores nostrum harum.\nEligendi esse excepturi eum delectus et maxime.\nUt nostrum fuga ipsam voluptatem corrupti saepe.",
		"created_at": "2019-06-19T10:57:07.9864657+00:00",
		"finished_at": "2020-05-14T06:08:14.5103318+00:00",
		"state": 0,
		"project_id": 33,
		"performer_id": 21
	},
	{
		"id": 91,
		"name": "Suscipit dolor eum similique nihil.",
		"description": "Consequatur ipsum qui est.\nRatione voluptatibus dolores ut tempore doloremque cumque sunt est sunt.",
		"created_at": "2019-06-18T22:15:10.6945301+00:00",
		"finished_at": "2020-03-18T14:57:34.4285277+00:00",
		"state": 1,
		"project_id": 35,
		"performer_id": 26
	},
	{
		"id": 92,
		"name": "Maiores eum repudiandae.",
		"description": "Voluptas adipisci tempore unde ducimus quia ipsam voluptatem placeat dolorem.\nPerferendis quod autem accusantium molestias eaque alias odio ex recusandae.",
		"created_at": "2019-06-18T16:22:06.2776906+00:00",
		"finished_at": "2019-11-01T22:58:50.2637388+00:00",
		"state": 2,
		"project_id": 72,
		"performer_id": 22
	},
	{
		"id": 93,
		"name": "Cupiditate ducimus facilis atque fugit officia quas consequuntur unde.",
		"description": "Ratione dicta consequatur eaque repellat atque aliquam.\nNostrum est mollitia dolorem consectetur illum.\nRepudiandae ut aut enim aut non facilis sapiente quaerat.\nQuis harum voluptas quod.\nNam tenetur magnam totam accusamus et maiores.\nMolestias omnis placeat ipsa et neque rem illum adipisci aspernatur.",
		"created_at": "2019-06-18T20:02:10.8040926+00:00",
		"finished_at": "2020-04-05T09:31:25.3687953+00:00",
		"state": 3,
		"project_id": 86,
		"performer_id": 36
	},
	{
		"id": 94,
		"name": "Mollitia dolorem qui est inventore cumque molestiae.",
		"description": "Facilis sint est.\nQuia molestiae minima et possimus illo rerum culpa et repellendus.\nExplicabo provident inventore eius sequi sit.\nEos aut commodi non iusto nesciunt.\nCumque suscipit iure autem illo eum ut totam voluptatem.",
		"created_at": "2019-06-19T01:49:13.8234231+00:00",
		"finished_at": "2020-02-14T04:16:57.5649731+00:00",
		"state": 1,
		"project_id": 44,
		"performer_id": 39
	},
	{
		"id": 95,
		"name": "Velit libero est dolor vel voluptatibus.",
		"description": "Sed sunt ipsum dolor voluptas qui.\nQuos quia nihil inventore porro dolores sed placeat.\nQuos fuga vel qui fuga maiores officiis maxime beatae dolor.",
		"created_at": "2019-06-18T20:56:46.7861465+00:00",
		"finished_at": "2019-10-14T19:08:07.894328+00:00",
		"state": 3,
		"project_id": 97,
		"performer_id": 42
	},
	{
		"id": 96,
		"name": "Occaecati itaque iusto beatae id aut.",
		"description": "Sapiente aut quae odio libero nisi sed.\nCulpa vel earum doloribus earum ut consequatur omnis.\nMolestiae cumque nam qui.\nQui qui cupiditate cum id perspiciatis.\nRepellendus exercitationem quis repellat vel.",
		"created_at": "2019-06-18T19:57:27.990798+00:00",
		"finished_at": "2019-08-02T20:18:53.8699267+00:00",
		"state": 2,
		"project_id": 86,
		"performer_id": 32
	},
	{
		"id": 97,
		"name": "Nostrum laborum dolor ut sapiente est.",
		"description": "Qui quis maxime.\nQuam sapiente nihil excepturi.\nEst repudiandae asperiores id distinctio.\nAutem sint sunt doloribus consequuntur.",
		"created_at": "2019-06-18T16:59:11.1407847+00:00",
		"finished_at": "2019-08-27T18:20:39.9955442+00:00",
		"state": 1,
		"project_id": 97,
		"performer_id": 42
	},
	{
		"id": 98,
		"name": "Libero at tempore sapiente rerum.",
		"description": "In beatae ipsa et hic eaque iure reiciendis.\nQuis occaecati dicta magni.\nConsequatur dolorem nisi non velit.",
		"created_at": "2019-06-18T20:57:45.6268508+00:00",
		"finished_at": "2019-10-20T08:26:41.8528345+00:00",
		"state": 1,
		"project_id": 100,
		"performer_id": 14
	},
	{
		"id": 99,
		"name": "Ea eos et maiores unde ea vitae.",
		"description": "Possimus hic quaerat ad facere qui dolorum.\nQuod et ab quia voluptatem voluptatem eum autem inventore repellat.",
		"created_at": "2019-06-18T19:12:38.6487353+00:00",
		"finished_at": "2019-10-12T23:45:13.6479457+00:00",
		"state": 0,
		"project_id": 77,
		"performer_id": 25
	},
	{
		"id": 100,
		"name": "Ut et minus vel saepe.",
		"description": "Earum voluptas dolor illo sunt.\nNecessitatibus officia et.\nLabore et aliquid optio dolorum et eveniet.\nEst eligendi et odio quo delectus impedit accusamus tempore enim.\nConsectetur ut qui consequuntur.\nQuia recusandae est.",
		"created_at": "2019-06-19T02:22:02.8077221+00:00",
		"finished_at": "2019-10-03T07:50:30.3706043+00:00",
		"state": 1,
		"project_id": 75,
		"performer_id": 38
	},
	{
		"id": 101,
		"name": "Sapiente vel nostrum impedit.",
		"description": "Et qui animi incidunt fuga et quos numquam nisi.\nEa dolorum praesentium illo.\nExplicabo tempore minima autem.\nReiciendis in ut voluptas a vel unde corrupti.",
		"created_at": "2019-06-19T10:24:55.3246177+00:00",
		"finished_at": "2019-11-06T06:53:26.2403533+00:00",
		"state": 1,
		"project_id": 90,
		"performer_id": 17
	},
	{
		"id": 102,
		"name": "Eum iste dolore ut animi modi dolore pariatur praesentium.",
		"description": "Odio iusto reiciendis maxime occaecati aut ex quo consequuntur.\nArchitecto omnis consequatur accusamus rerum quis deleniti fugiat.\nConsequatur hic consequatur repellat vel.\nFugit voluptates adipisci minus voluptas unde.",
		"created_at": "2019-06-18T22:40:31.5062822+00:00",
		"finished_at": "2020-05-12T00:09:48.5575368+00:00",
		"state": 2,
		"project_id": 57,
		"performer_id": 19
	},
	{
		"id": 103,
		"name": "Qui nihil aliquid labore facilis.",
		"description": "Vel eaque esse quo dolorum quidem accusamus iusto iusto.\nLaboriosam voluptate velit nesciunt odit quibusdam odit.\nRerum ducimus dolorum ut est.",
		"created_at": "2019-06-18T14:26:57.3407235+00:00",
		"finished_at": "2019-07-03T02:28:27.3774744+00:00",
		"state": 1,
		"project_id": 38,
		"performer_id": 25
	},
	{
		"id": 104,
		"name": "Consequatur et nobis quis maxime est quae harum beatae.",
		"description": "Voluptates quo nesciunt adipisci nobis vel aut alias.\nVoluptas est corporis id error praesentium deserunt sunt quo eius.\nUt nesciunt consequuntur.\nQuis harum temporibus alias.\nDelectus in magni.\nVelit rerum ut eos facere.",
		"created_at": "2019-06-18T15:50:52.3971314+00:00",
		"finished_at": "2019-07-15T09:18:21.9007227+00:00",
		"state": 3,
		"project_id": 28,
		"performer_id": 46
	},
	{
		"id": 105,
		"name": "Qui ad omnis et dolores iste sit nulla.",
		"description": "Facere quo a et illo.\nAut ut sint.\nOccaecati sapiente adipisci cum consectetur.\nLaboriosam architecto velit temporibus nam temporibus.\nNihil labore repellat impedit accusantium velit.",
		"created_at": "2019-06-18T11:55:07.3426511+00:00",
		"finished_at": "2020-04-26T08:52:18.5963509+00:00",
		"state": 2,
		"project_id": 15,
		"performer_id": 40
	},
	{
		"id": 106,
		"name": "Quos commodi fuga est debitis.",
		"description": "Vitae odio ea repellendus qui.\nSint dignissimos repellat nobis sapiente sit sed nam inventore enim.\nCumque incidunt cum.\nVelit magni ut harum.",
		"created_at": "2019-06-18T16:53:22.2214556+00:00",
		"finished_at": "2019-12-01T09:30:44.0200963+00:00",
		"state": 1,
		"project_id": 17,
		"performer_id": 45
	},
	{
		"id": 107,
		"name": "Tempore nemo eos.",
		"description": "Placeat maxime nam fugiat.\nVel quia tempora facilis dolor et voluptatum.\nDicta eius consequatur.",
		"created_at": "2019-06-19T07:59:34.294128+00:00",
		"finished_at": "2020-01-10T07:30:41.7985587+00:00",
		"state": 0,
		"project_id": 45,
		"performer_id": 10
	},
	{
		"id": 108,
		"name": "Autem sed sunt nesciunt atque magnam ducimus.",
		"description": "Fuga iusto consequatur molestias dolores consequatur quo hic atque.\nVoluptate vero placeat.\nVoluptate fuga enim quo voluptatem.",
		"created_at": "2019-06-18T22:26:24.5224731+00:00",
		"finished_at": "2020-04-14T02:26:32.9129291+00:00",
		"state": 0,
		"project_id": 30,
		"performer_id": 29
	},
	{
		"id": 109,
		"name": "Quas ut quia.",
		"description": "Omnis temporibus minima libero sequi rem tempora.\nMinus quibusdam animi illum.\nQuos maxime iste dolores voluptas libero omnis.",
		"created_at": "2019-06-19T09:03:23.970379+00:00",
		"finished_at": "2019-06-25T06:34:45.3668922+00:00",
		"state": 0,
		"project_id": 56,
		"performer_id": 13
	},
	{
		"id": 110,
		"name": "Enim ut qui natus.",
		"description": "Qui facilis quia illum dolorum nisi rerum iste cum ea.\nIure nostrum iste libero est tenetur nisi perferendis.",
		"created_at": "2019-06-18T17:43:25.9512512+00:00",
		"finished_at": "2019-11-06T15:12:20.2250863+00:00",
		"state": 0,
		"project_id": 8,
		"performer_id": 23
	},
	{
		"id": 111,
		"name": "Maiores ex quae sed recusandae iure nihil quis.",
		"description": "Placeat unde eveniet quia ipsum iure.\nQuia non dolores veniam doloribus ea ex fugit.\nEst ea iste.\nVoluptate consequatur accusantium et quae adipisci laborum.\nQuia enim repellat est voluptas aut et quo qui.\nDolores corporis minima eius aut.",
		"created_at": "2019-06-18T20:16:15.3457264+00:00",
		"finished_at": "2020-05-17T07:27:44.2512185+00:00",
		"state": 1,
		"project_id": 7,
		"performer_id": 16
	},
	{
		"id": 112,
		"name": "Voluptate quo repellendus pariatur.",
		"description": "Aut est et rerum.\nEt quidem tempora occaecati ducimus minima distinctio ullam eos magnam.\nAmet error ea rerum eligendi.",
		"created_at": "2019-06-19T02:35:05.6869029+00:00",
		"finished_at": "2019-12-27T22:23:08.1140595+00:00",
		"state": 2,
		"project_id": 46,
		"performer_id": 15
	},
	{
		"id": 113,
		"name": "Totam dolorem commodi quasi neque dicta temporibus laboriosam.",
		"description": "Consectetur occaecati provident quis.\nEt dolorem aliquid magni non.\nEt qui quia nihil aut voluptatibus aut illum dolorem.",
		"created_at": "2019-06-18T16:15:37.3757876+00:00",
		"finished_at": "2019-12-29T00:47:33.944904+00:00",
		"state": 3,
		"project_id": 93,
		"performer_id": 36
	},
	{
		"id": 114,
		"name": "Quis adipisci deleniti non impedit voluptatem et quisquam.",
		"description": "Quisquam a sint cumque consectetur.\nError dolorum et sit inventore.",
		"created_at": "2019-06-18T12:38:36.2709823+00:00",
		"finished_at": "2019-12-31T22:57:24.4673244+00:00",
		"state": 2,
		"project_id": 31,
		"performer_id": 9
	},
	{
		"id": 115,
		"name": "Et ratione quis dolor non.",
		"description": "Commodi illum fugiat.\nAdipisci perferendis vitae vel voluptatem delectus sed reiciendis.\nEt quia impedit rerum aut.",
		"created_at": "2019-06-19T09:04:26.6264371+00:00",
		"finished_at": "2020-03-30T07:04:47.4863384+00:00",
		"state": 3,
		"project_id": 39,
		"performer_id": 2
	},
	{
		"id": 116,
		"name": "Dolorem inventore nihil in.",
		"description": "Et consequatur minima velit aut qui quos eos quo.\nVel blanditiis delectus deserunt.\nNesciunt illum corrupti blanditiis.\nAut esse aut eos architecto eaque.\nDebitis nesciunt fuga iusto dolorem quis nesciunt.",
		"created_at": "2019-06-18T20:12:04.357029+00:00",
		"finished_at": "2020-01-08T17:19:47.5666654+00:00",
		"state": 3,
		"project_id": 24,
		"performer_id": 20
	},
	{
		"id": 117,
		"name": "In consequatur aut fugit sunt similique accusantium assumenda assumenda.",
		"description": "Vel dolorum quidem debitis similique nesciunt aspernatur ut quibusdam.\nMolestiae esse consequuntur assumenda velit laborum nihil.\nAssumenda doloribus dicta.",
		"created_at": "2019-06-18T20:10:14.7011326+00:00",
		"finished_at": "2019-10-05T23:02:25.501513+00:00",
		"state": 2,
		"project_id": 25,
		"performer_id": 27
	},
	{
		"id": 118,
		"name": "Provident non accusantium.",
		"description": "Inventore ad est dolores commodi.\nLabore facilis culpa harum est dolor sed natus.\nNisi placeat aut eius harum est blanditiis.",
		"created_at": "2019-06-19T06:24:14.1069988+00:00",
		"finished_at": "2019-06-20T04:58:20.7474643+00:00",
		"state": 2,
		"project_id": 89,
		"performer_id": 18
	},
	{
		"id": 119,
		"name": "Incidunt quia inventore sit.",
		"description": "Quam doloremque quos voluptatem hic.\nImpedit voluptas blanditiis provident blanditiis aut.",
		"created_at": "2019-06-18T14:32:09.0909606+00:00",
		"finished_at": "2020-01-05T05:19:33.6484557+00:00",
		"state": 1,
		"project_id": 79,
		"performer_id": 11
	},
	{
		"id": 120,
		"name": "Quo quis reprehenderit fugiat sed cum voluptatem aut.",
		"description": "Adipisci et suscipit tenetur.\nPossimus optio dicta corrupti voluptate fugit provident aperiam vitae quibusdam.\nExcepturi et ipsam et laborum est ut.\nProvident quis cumque reprehenderit suscipit esse omnis voluptates et.\nEt doloremque odit facere et.",
		"created_at": "2019-06-18T21:07:34.34296+00:00",
		"finished_at": "2019-12-22T19:27:50.038063+00:00",
		"state": 2,
		"project_id": 27,
		"performer_id": 33
	},
	{
		"id": 121,
		"name": "Repudiandae sunt ad dicta.",
		"description": "Perspiciatis tenetur ut nihil laborum illo nemo.\nArchitecto facilis sed aut placeat perferendis assumenda laudantium possimus.\nEt dicta et quaerat dolores soluta vero voluptatem animi optio.\nRatione voluptatem porro facere optio cupiditate architecto error.\nAliquam facilis provident et voluptatem.",
		"created_at": "2019-06-18T17:56:21.6357115+00:00",
		"finished_at": "2019-08-28T21:19:09.3051489+00:00",
		"state": 3,
		"project_id": 52,
		"performer_id": 9
	},
	{
		"id": 122,
		"name": "Veniam doloribus excepturi assumenda sint quidem minima qui nesciunt.",
		"description": "Quis qui eos error ut.\nEst inventore molestiae fuga atque ut.\nQuos eligendi ut.\nMaxime ut omnis fuga earum rerum.",
		"created_at": "2019-06-18T17:56:21.4904762+00:00",
		"finished_at": "2020-01-16T06:09:48.8473361+00:00",
		"state": 1,
		"project_id": 26,
		"performer_id": 12
	},
	{
		"id": 123,
		"name": "Assumenda sint sed.",
		"description": "Et natus reprehenderit error.\nModi eius mollitia ut ad dicta.\nId ipsa est nisi debitis explicabo veniam ex earum voluptas.\nNostrum ut nisi consectetur impedit aliquam odio.\nExpedita quo dolor harum.\nOmnis vel laboriosam.",
		"created_at": "2019-06-18T18:51:03.5729344+00:00",
		"finished_at": "2020-03-26T01:29:07.8718039+00:00",
		"state": 0,
		"project_id": 29,
		"performer_id": 28
	},
	{
		"id": 124,
		"name": "Aut architecto vitae.",
		"description": "Autem est atque omnis dolore vitae perferendis aut eius vitae.\nExcepturi laboriosam autem.\nMolestiae neque qui.\nExpedita autem dolores facere tempora officia.\nNemo ullam quod.",
		"created_at": "2019-06-18T22:48:45.2677433+00:00",
		"finished_at": "2019-08-01T16:24:17.5720154+00:00",
		"state": 1,
		"project_id": 59,
		"performer_id": 4
	},
	{
		"id": 125,
		"name": "Id nisi sit dolores sed sit ducimus error eos.",
		"description": "Ab ducimus neque quaerat accusantium aliquam in.\nNeque sed quia porro impedit delectus aut aut.\nQuaerat delectus eius est porro ea voluptatem minima sapiente.\nReiciendis minus quos aliquam debitis quis.",
		"created_at": "2019-06-19T07:32:11.588412+00:00",
		"finished_at": "2019-10-01T16:03:18.6571733+00:00",
		"state": 2,
		"project_id": 9,
		"performer_id": 48
	},
	{
		"id": 126,
		"name": "Quia culpa minus quia consectetur mollitia enim quisquam omnis.",
		"description": "Qui sint voluptatem ipsam.\nSuscipit sunt aut reiciendis veritatis dolorem mollitia consequatur tempore.\nEt molestiae pariatur ea possimus unde commodi inventore quidem.",
		"created_at": "2019-06-19T02:59:23.7917665+00:00",
		"finished_at": "2019-08-01T08:10:49.1204826+00:00",
		"state": 3,
		"project_id": 56,
		"performer_id": 17
	},
	{
		"id": 127,
		"name": "Totam sint debitis qui repudiandae non est blanditiis omnis.",
		"description": "Voluptatem sint eos quas at.\nLaudantium possimus cumque distinctio sint possimus quas.\nConsequatur eos nobis perspiciatis similique possimus ex et.",
		"created_at": "2019-06-18T12:24:17.5672609+00:00",
		"finished_at": "2019-07-20T16:01:33.4457886+00:00",
		"state": 0,
		"project_id": 23,
		"performer_id": 26
	},
	{
		"id": 128,
		"name": "Tempore doloribus aut odit unde incidunt aut sed.",
		"description": "Est fugit aut molestias provident beatae iste numquam et reprehenderit.\nOfficiis molestiae occaecati sint eveniet sint.",
		"created_at": "2019-06-18T15:27:54.7392853+00:00",
		"finished_at": "2020-05-20T11:28:05.9877155+00:00",
		"state": 3,
		"project_id": 100,
		"performer_id": 34
	},
	{
		"id": 129,
		"name": "Accusantium dolor velit quia excepturi explicabo iure.",
		"description": "Fuga sint rerum vel exercitationem aliquam iure.\nDistinctio non occaecati illo vel doloremque et in est quo.\nDolore ratione rerum.\nError maxime dolores sit voluptas necessitatibus eius.\nAccusamus provident quia aut animi officiis sint.\nVoluptatum quis doloremque enim.",
		"created_at": "2019-06-19T02:06:39.8662798+00:00",
		"finished_at": "2019-12-28T05:35:40.5473322+00:00",
		"state": 2,
		"project_id": 70,
		"performer_id": 21
	},
	{
		"id": 130,
		"name": "Fugit harum delectus sed similique ullam nesciunt vel quibusdam fugiat.",
		"description": "Quidem quibusdam molestiae.\nQuasi dignissimos consequatur.\nOccaecati quos modi rerum cumque explicabo corrupti rerum.",
		"created_at": "2019-06-19T02:01:08.3260597+00:00",
		"finished_at": "2020-02-23T00:45:54.5809602+00:00",
		"state": 3,
		"project_id": 84,
		"performer_id": 23
	},
	{
		"id": 131,
		"name": "Voluptas dolore ad laborum quia adipisci.",
		"description": "Debitis molestiae omnis tempora a accusamus similique autem expedita.\nHic accusamus reprehenderit nostrum sed assumenda id nostrum.\nVoluptate ut et.",
		"created_at": "2019-06-18T13:42:43.3209593+00:00",
		"finished_at": "2019-08-04T02:12:31.6890342+00:00",
		"state": 2,
		"project_id": 11,
		"performer_id": 29
	},
	{
		"id": 132,
		"name": "Nobis quaerat qui dolor ut dolores pariatur blanditiis atque architecto.",
		"description": "Sunt minus sequi.\nIn neque repudiandae deserunt quia rerum voluptate ut et.\nAspernatur et beatae qui quaerat consequatur recusandae repellendus.",
		"created_at": "2019-06-19T01:50:03.6382793+00:00",
		"finished_at": "2020-05-16T02:50:28.5439094+00:00",
		"state": 0,
		"project_id": 1,
		"performer_id": 34
	},
	{
		"id": 133,
		"name": "Voluptatem officia est voluptate quia corporis facere rem molestias alias.",
		"description": "Sequi ut natus ullam accusamus.\nPerspiciatis quas officia.",
		"created_at": "2019-06-19T08:32:34.5272839+00:00",
		"finished_at": "2019-09-29T13:22:41.4653876+00:00",
		"state": 3,
		"project_id": 47,
		"performer_id": 48
	},
	{
		"id": 134,
		"name": "Architecto et voluptatem.",
		"description": "Atque aut explicabo dolores et vel.\nEt doloremque tempora soluta illum amet pariatur tempore eum amet.\nEt quo libero voluptatem autem magnam nam est consequatur.\nNumquam dignissimos velit vel rerum est.\nDolores dolores ducimus.\nOmnis voluptas facere explicabo.",
		"created_at": "2019-06-19T03:06:21.5002131+00:00",
		"finished_at": "2019-12-15T12:26:58.3345212+00:00",
		"state": 0,
		"project_id": 56,
		"performer_id": 16
	},
	{
		"id": 135,
		"name": "Et consectetur delectus enim ipsam quas ab quia.",
		"description": "Quibusdam laudantium quidem.\nFugiat doloremque consequatur dolores odio officia accusantium et officiis.\nRepellendus dolor necessitatibus id est sunt quasi.\nNon ullam quia aut qui pariatur architecto expedita ipsum libero.\nVero consequatur animi eos.",
		"created_at": "2019-06-19T05:12:38.8396473+00:00",
		"finished_at": "2019-12-30T21:32:34.2266629+00:00",
		"state": 3,
		"project_id": 37,
		"performer_id": 37
	},
	{
		"id": 136,
		"name": "Maxime expedita voluptas non et cupiditate voluptatibus autem.",
		"description": "Provident sit aut provident laboriosam libero qui in a quam.\nQuam ea soluta perferendis assumenda amet ipsam ut quia.\nQuia quibusdam animi nihil dolore delectus.\nQuo atque itaque doloribus.",
		"created_at": "2019-06-19T08:28:00.6743663+00:00",
		"finished_at": "2020-02-19T08:49:28.6542679+00:00",
		"state": 2,
		"project_id": 86,
		"performer_id": 1
	},
	{
		"id": 137,
		"name": "Fuga est a et.",
		"description": "Voluptas ut sit qui et velit et.\nEius veniam aut sunt cumque deserunt.\nVoluptatum deleniti autem dolor et voluptatem ipsum voluptas sed.\nAliquam voluptas consequatur fugit rerum et laboriosam iste iusto.\nQuod ullam sed iste modi et.",
		"created_at": "2019-06-18T22:54:32.1277281+00:00",
		"finished_at": "2019-07-20T07:57:39.6357217+00:00",
		"state": 1,
		"project_id": 75,
		"performer_id": 11
	},
	{
		"id": 138,
		"name": "Veritatis culpa sunt.",
		"description": "Architecto molestias deserunt magni veritatis.\nDolor dicta eligendi.\nAd numquam assumenda provident ut.\nQuia quia ea ut.\nQuis omnis unde consectetur neque ea aut.",
		"created_at": "2019-06-18T22:56:26.5253395+00:00",
		"finished_at": "2019-11-03T00:15:45.4679895+00:00",
		"state": 1,
		"project_id": 49,
		"performer_id": 2
	},
	{
		"id": 139,
		"name": "Dignissimos modi natus.",
		"description": "Sunt autem eos omnis.\nUt et amet eveniet perferendis architecto dolorum ex perferendis molestias.\nNihil qui quae itaque eveniet nam quia sapiente.\nPorro cumque saepe qui illo suscipit quaerat excepturi.\nUt vero quam illum eum velit omnis aut laudantium a.",
		"created_at": "2019-06-18T13:25:52.6664675+00:00",
		"finished_at": "2020-05-03T00:42:34.4921695+00:00",
		"state": 3,
		"project_id": 78,
		"performer_id": 15
	},
	{
		"id": 140,
		"name": "Suscipit aut illum dolorem.",
		"description": "Molestiae ipsum dolor molestiae ut.\nSed blanditiis nulla cum illum aut esse maxime.\nQuia necessitatibus ut nulla dolor molestiae sed dolore.\nAmet quos qui vitae iusto minima eos et voluptas animi.\nEst et saepe deserunt omnis modi occaecati et veniam.",
		"created_at": "2019-06-19T06:56:45.6574656+00:00",
		"finished_at": "2020-04-16T20:05:56.9944589+00:00",
		"state": 3,
		"project_id": 30,
		"performer_id": 45
	},
	{
		"id": 141,
		"name": "Voluptas voluptatibus sequi at quae voluptas dolores.",
		"description": "Et voluptatem quod quod.\nBlanditiis voluptatem similique ut iure ut illum.\nSapiente vitae asperiores nemo nostrum a ea officia delectus nobis.\nEst quia repudiandae praesentium reprehenderit voluptas ducimus ut amet.",
		"created_at": "2019-06-18T12:10:03.8661573+00:00",
		"finished_at": "2019-12-16T22:31:03.9677587+00:00",
		"state": 0,
		"project_id": 85,
		"performer_id": 38
	},
	{
		"id": 142,
		"name": "Consequatur ea ut et eos modi recusandae accusamus ipsa ut.",
		"description": "Saepe saepe doloribus est.\nAut harum a in necessitatibus illo sit.\nNatus dolor cumque itaque et et minima.\nAut voluptas blanditiis dolore.\nVoluptates ut modi nulla.\nOptio voluptate quo similique et pariatur possimus consequatur dolor.",
		"created_at": "2019-06-19T10:09:46.2440271+00:00",
		"finished_at": "2020-06-15T21:01:50.7540239+00:00",
		"state": 0,
		"project_id": 64,
		"performer_id": 19
	},
	{
		"id": 143,
		"name": "Aut ducimus nostrum iure.",
		"description": "Dignissimos nisi aspernatur explicabo minus qui aut.\nOmnis eum asperiores soluta pariatur.",
		"created_at": "2019-06-19T11:34:04.0044076+00:00",
		"finished_at": "2020-04-03T22:23:09.9334378+00:00",
		"state": 2,
		"project_id": 66,
		"performer_id": 29
	},
	{
		"id": 144,
		"name": "Quia numquam incidunt.",
		"description": "Sit earum rerum suscipit assumenda nihil omnis ducimus.\nIpsam totam vitae saepe architecto.\nNeque dignissimos dicta qui earum consectetur adipisci quisquam.\nSint ut dolorum.\nRem aut inventore.\nQuia nihil omnis repellendus laudantium voluptatem.",
		"created_at": "2019-06-19T02:27:37.5875212+00:00",
		"finished_at": "2020-06-07T05:18:09.3852612+00:00",
		"state": 2,
		"project_id": 65,
		"performer_id": 44
	},
	{
		"id": 145,
		"name": "Dicta a rem occaecati necessitatibus.",
		"description": "Esse non corporis.\nAperiam deleniti doloribus modi est esse nihil.\nNobis aut iusto.",
		"created_at": "2019-06-19T02:57:48.0405966+00:00",
		"finished_at": "2019-11-11T15:14:09.4841406+00:00",
		"state": 2,
		"project_id": 8,
		"performer_id": 22
	},
	{
		"id": 146,
		"name": "Provident a quia nulla illum et incidunt velit cumque.",
		"description": "Vero iure omnis hic corporis architecto inventore libero.\nConsequatur sunt earum error error at id culpa eaque.\nQuaerat explicabo id iste voluptate molestiae autem.\nQuo temporibus modi ullam.\nCupiditate voluptas commodi eius et.\nDolor laborum repudiandae assumenda quas minima.",
		"created_at": "2019-06-19T05:14:17.8348711+00:00",
		"finished_at": "2020-03-12T02:47:33.3837727+00:00",
		"state": 2,
		"project_id": 84,
		"performer_id": 13
	},
	{
		"id": 147,
		"name": "Qui enim tempore similique rerum aut est vitae.",
		"description": "Ut aut provident molestias repellendus esse ut sed quidem id.\nAliquam sint nisi.\nAspernatur minima perspiciatis reprehenderit fugiat.\nEt ut quisquam et odit dolorem voluptas aut iure.",
		"created_at": "2019-06-19T08:19:46.2172495+00:00",
		"finished_at": "2019-06-28T15:29:49.424722+00:00",
		"state": 0,
		"project_id": 12,
		"performer_id": 37
	},
	{
		"id": 148,
		"name": "Ad fugit eligendi expedita necessitatibus voluptas.",
		"description": "Minima ex ut voluptatem omnis animi harum cum consequuntur deleniti.\nConsequatur odio soluta deserunt rem sunt dolore perferendis et maiores.\nOmnis dignissimos consequuntur quas.",
		"created_at": "2019-06-19T06:41:21.7901282+00:00",
		"finished_at": "2019-07-18T19:03:39.7620943+00:00",
		"state": 0,
		"project_id": 47,
		"performer_id": 42
	},
	{
		"id": 149,
		"name": "Fugiat reprehenderit cumque est totam sapiente ipsum veritatis facere eos.",
		"description": "Illum deserunt perspiciatis.\nAut neque sit.\nCupiditate magnam doloremque sapiente et maxime.\nAperiam culpa autem accusantium ab eos ex error iusto qui.\nAtque ut vero.\nRerum magni esse.",
		"created_at": "2019-06-18T23:05:12.4493061+00:00",
		"finished_at": "2020-06-04T13:48:31.0017401+00:00",
		"state": 2,
		"project_id": 83,
		"performer_id": 35
	},
	{
		"id": 150,
		"name": "Ratione facilis libero molestias blanditiis repellat voluptate officiis et.",
		"description": "Minus recusandae repellendus maiores praesentium doloremque aut ut tenetur soluta.\nPerspiciatis in corporis eveniet unde dolor voluptates mollitia suscipit saepe.\nVeritatis debitis beatae id cumque.\nConsequuntur velit ut dolore et ut non velit harum.\nQuis commodi officia quam excepturi veniam amet sint aliquid iste.",
		"created_at": "2019-06-18T21:46:54.1581927+00:00",
		"finished_at": "2019-07-26T21:56:48.0096133+00:00",
		"state": 3,
		"project_id": 33,
		"performer_id": 43
	},
	{
		"id": 151,
		"name": "Ad nihil cupiditate mollitia.",
		"description": "Quod deleniti dolorem explicabo cumque sint minima ut incidunt.\nRem vel dolor eligendi natus aliquam qui consequatur.\nOmnis incidunt quod laborum labore aut voluptas est doloribus sint.\nDolore veniam possimus.\nDucimus eaque amet laudantium et incidunt consequatur.",
		"created_at": "2019-06-19T03:33:14.7028731+00:00",
		"finished_at": "2019-08-09T05:00:10.5313572+00:00",
		"state": 0,
		"project_id": 36,
		"performer_id": 11
	},
	{
		"id": 152,
		"name": "Amet aspernatur laudantium et quo non ut molestias.",
		"description": "Sed unde alias et.\nQuis autem consectetur quis voluptatem adipisci et consectetur illo minima.\nOccaecati et soluta earum.",
		"created_at": "2019-06-18T21:16:07.6198031+00:00",
		"finished_at": "2019-08-25T13:50:12.1359492+00:00",
		"state": 2,
		"project_id": 86,
		"performer_id": 46
	},
	{
		"id": 153,
		"name": "Laboriosam officia et.",
		"description": "Ducimus quia aliquam quia est eaque beatae aut vitae quia.\nUt vel ut fugiat sed.\nQui voluptate perferendis qui sed sapiente numquam.\nEos nobis facilis.",
		"created_at": "2019-06-18T13:52:22.117047+00:00",
		"finished_at": "2019-08-03T21:42:15.544869+00:00",
		"state": 1,
		"project_id": 80,
		"performer_id": 17
	},
	{
		"id": 154,
		"name": "Quia atque est alias qui cumque.",
		"description": "Impedit odit doloribus eum cumque.\nLibero nihil sed consequatur vel aliquid.\nQuo ut et voluptates non ipsa aspernatur.\nEx et repellat maxime et enim ipsa.",
		"created_at": "2019-06-19T03:25:11.0811863+00:00",
		"finished_at": "2020-04-11T07:30:40.7357218+00:00",
		"state": 3,
		"project_id": 16,
		"performer_id": 23
	},
	{
		"id": 155,
		"name": "Fugiat non mollitia ut possimus perspiciatis et dicta.",
		"description": "Ratione quo minus doloribus architecto aliquid a dolorem.\nDolores assumenda ea cumque ex tempore doloribus quidem vitae odit.\nItaque commodi quia et ut quis perferendis quidem.\nPossimus hic quia.",
		"created_at": "2019-06-19T05:27:09.7113798+00:00",
		"finished_at": "2020-04-20T12:56:57.1173381+00:00",
		"state": 2,
		"project_id": 36,
		"performer_id": 15
	},
	{
		"id": 156,
		"name": "Perspiciatis veniam beatae aut.",
		"description": "Incidunt totam sint dolor qui.\nOmnis dolor excepturi beatae rerum cumque suscipit voluptatem repellendus.\nSit error quo accusamus.\nBeatae est aut ut.",
		"created_at": "2019-06-18T12:48:31.3714147+00:00",
		"finished_at": "2020-01-24T13:31:26.1037422+00:00",
		"state": 2,
		"project_id": 93,
		"performer_id": 38
	},
	{
		"id": 157,
		"name": "Sint non necessitatibus esse vitae et vel quo.",
		"description": "Assumenda deleniti repudiandae illo.\nVitae consectetur fugit voluptas qui voluptas.\nSequi dolorem reprehenderit rerum sunt sed sequi maxime harum.\nUt ut dolores nihil ut vel necessitatibus est.",
		"created_at": "2019-06-18T19:39:10.553365+00:00",
		"finished_at": "2019-11-14T09:49:18.2356454+00:00",
		"state": 3,
		"project_id": 77,
		"performer_id": 27
	},
	{
		"id": 158,
		"name": "Nam vel veniam veniam.",
		"description": "Et consequatur nemo et ex totam.\nEum est magni itaque cum.\nEst perspiciatis vel modi et et nulla.\nUt facere nemo dicta possimus corrupti nesciunt numquam.\nEarum itaque blanditiis dicta dolor minus architecto accusantium quam.",
		"created_at": "2019-06-18T19:00:15.6755818+00:00",
		"finished_at": "2020-01-26T00:31:11.3379627+00:00",
		"state": 0,
		"project_id": 26,
		"performer_id": 7
	},
	{
		"id": 159,
		"name": "Ut repellendus ipsa rerum.",
		"description": "Et soluta recusandae maxime expedita inventore repellat.\nMollitia voluptatibus explicabo et maxime amet repellat modi rem.\nVel quod adipisci est est sit veniam maiores totam neque.\nEt et nihil dolores voluptatem ipsam aliquam occaecati nisi consequuntur.\nArchitecto dolore qui numquam sunt voluptas ut aspernatur.",
		"created_at": "2019-06-18T12:02:11.0288116+00:00",
		"finished_at": "2019-12-02T08:11:04.3224892+00:00",
		"state": 3,
		"project_id": 98,
		"performer_id": 18
	},
	{
		"id": 160,
		"name": "Assumenda aut blanditiis dicta et.",
		"description": "Officia fugiat illum explicabo deleniti reprehenderit sed nihil.\nMaxime cumque consequuntur illum eos nam rerum dolorem excepturi.\nSint dignissimos consequatur perferendis veritatis porro blanditiis.\nSint ut suscipit.",
		"created_at": "2019-06-18T12:46:16.4729678+00:00",
		"finished_at": "2020-03-20T08:47:51.8586202+00:00",
		"state": 1,
		"project_id": 74,
		"performer_id": 37
	},
	{
		"id": 161,
		"name": "Qui possimus vel accusantium.",
		"description": "Ea velit expedita tempora.\nIpsam ea voluptatem ducimus qui rerum tempora.",
		"created_at": "2019-06-19T07:23:00.7439588+00:00",
		"finished_at": "2020-02-11T08:08:23.8937875+00:00",
		"state": 1,
		"project_id": 46,
		"performer_id": 31
	},
	{
		"id": 162,
		"name": "Libero quo beatae.",
		"description": "Ea illo nihil sint.\nOmnis molestiae accusamus.\nQui laborum eos inventore incidunt.\nSed error sit at et recusandae incidunt.\nQuam tempore aliquid impedit at quae distinctio eligendi a.\nVelit et qui necessitatibus necessitatibus.",
		"created_at": "2019-06-18T22:51:53.8425172+00:00",
		"finished_at": "2019-11-29T02:49:16.2224876+00:00",
		"state": 3,
		"project_id": 21,
		"performer_id": 5
	},
	{
		"id": 163,
		"name": "Quae corporis animi eos aliquam modi harum natus corporis tempore.",
		"description": "In necessitatibus ex deserunt corporis ipsam magni consectetur alias.\nPlaceat quasi in dolorem tempore ducimus et deserunt est.\nOdit ipsam cum magni sit.\nAt suscipit dolor non omnis doloremque repudiandae dicta facilis assumenda.\nConsequatur delectus explicabo id quaerat.",
		"created_at": "2019-06-18T14:14:21.2081972+00:00",
		"finished_at": "2019-10-14T12:58:02.5636305+00:00",
		"state": 1,
		"project_id": 9,
		"performer_id": 34
	},
	{
		"id": 164,
		"name": "Deleniti nihil natus iste aut.",
		"description": "Praesentium autem voluptate temporibus et porro.\nCorrupti dolor ut fugit.\nEt omnis fuga nulla nihil.\nDolorem qui dolor animi aut voluptatem et voluptatum.",
		"created_at": "2019-06-19T06:37:23.5056469+00:00",
		"finished_at": "2019-09-09T20:49:56.6596792+00:00",
		"state": 3,
		"project_id": 64,
		"performer_id": 30
	},
	{
		"id": 165,
		"name": "Ea soluta et et ut alias quia.",
		"description": "Officia odio est beatae quia occaecati ad cum sed consequatur.\nDistinctio culpa in dolorem id eos nobis quaerat dolores.",
		"created_at": "2019-06-18T13:06:46.7101307+00:00",
		"finished_at": "2020-04-26T06:55:11.9268071+00:00",
		"state": 0,
		"project_id": 69,
		"performer_id": 46
	},
	{
		"id": 166,
		"name": "Rem nisi saepe et possimus temporibus sed aut.",
		"description": "Qui magni occaecati temporibus.\nVel et labore libero est ut aut impedit.\nReiciendis est quaerat deserunt.\nReprehenderit tempora omnis culpa laudantium aut occaecati tenetur harum sed.\nQui suscipit non dolorem.",
		"created_at": "2019-06-18T11:52:27.8995415+00:00",
		"finished_at": "2019-10-16T00:36:25.358284+00:00",
		"state": 1,
		"project_id": 38,
		"performer_id": 36
	},
	{
		"id": 167,
		"name": "Aut molestiae dolorem eaque perspiciatis repellendus error quae perspiciatis.",
		"description": "Nihil ea ea voluptatem.\nEum omnis inventore.",
		"created_at": "2019-06-19T04:46:39.0180398+00:00",
		"finished_at": "2019-08-27T09:43:41.8656563+00:00",
		"state": 1,
		"project_id": 44,
		"performer_id": 26
	},
	{
		"id": 168,
		"name": "Minus iste quo inventore odio voluptatem distinctio ut.",
		"description": "Aut facere quia maxime animi tempora voluptas.\nInventore cumque quam reiciendis libero sequi ullam.\nVeniam beatae sint sit fuga vitae laudantium tempore sequi voluptas.",
		"created_at": "2019-06-19T03:00:13.4797452+00:00",
		"finished_at": "2020-06-06T03:47:41.6589908+00:00",
		"state": 2,
		"project_id": 32,
		"performer_id": 22
	},
	{
		"id": 169,
		"name": "Ut error est doloribus enim nobis officiis.",
		"description": "Voluptatibus voluptas consequatur qui vel iure sequi.\nRatione veniam ducimus debitis reiciendis accusantium quis.\nDeserunt enim atque doloremque aut nisi.\nVoluptatibus eum consequatur aliquam libero corrupti aut et.\nLibero voluptatem aspernatur dolorum nemo similique hic ex.",
		"created_at": "2019-06-19T06:33:56.1025338+00:00",
		"finished_at": "2020-05-07T23:02:20.0803939+00:00",
		"state": 1,
		"project_id": 72,
		"performer_id": 50
	},
	{
		"id": 170,
		"name": "Voluptatem eum sit quas aliquam sint ut.",
		"description": "Quidem sed iure possimus autem dolores atque.\nQuia quam vel.\nTenetur molestiae libero eos.\nVoluptatem magni qui.\nOmnis et doloribus.",
		"created_at": "2019-06-18T13:04:36.3495759+00:00",
		"finished_at": "2019-11-12T20:59:57.5542965+00:00",
		"state": 0,
		"project_id": 47,
		"performer_id": 22
	},
	{
		"id": 171,
		"name": "Occaecati rem itaque veniam rem at mollitia.",
		"description": "Modi explicabo officiis reprehenderit ex dolor inventore.\nRerum tempore voluptas eligendi fuga enim sit iste.\nSuscipit qui velit illo placeat sequi deserunt sint et.\nDolor cupiditate laudantium dolore eius numquam maxime.\nEa neque iure excepturi vel et officia iusto expedita nam.\nExercitationem sapiente at officiis id dicta cupiditate.",
		"created_at": "2019-06-19T01:40:01.1209695+00:00",
		"finished_at": "2020-05-21T13:11:18.8969801+00:00",
		"state": 3,
		"project_id": 49,
		"performer_id": 11
	},
	{
		"id": 172,
		"name": "Atque magni ut.",
		"description": "Commodi dolorem reprehenderit rem qui qui optio totam enim et.\nEx quia dolorum voluptas et eos neque optio mollitia modi.\nQuam aut repudiandae distinctio numquam et.\nTenetur ut eaque dicta esse mollitia.",
		"created_at": "2019-06-19T01:34:06.2266265+00:00",
		"finished_at": "2020-02-02T18:52:55.7249514+00:00",
		"state": 3,
		"project_id": 6,
		"performer_id": 46
	},
	{
		"id": 173,
		"name": "Enim temporibus voluptatem ullam dolorem qui eveniet possimus soluta ipsum.",
		"description": "Est reiciendis omnis.\nDolorum voluptatem non aut expedita recusandae ea.\nIste nesciunt quis vitae dicta ex voluptatem.",
		"created_at": "2019-06-19T07:51:32.8495241+00:00",
		"finished_at": "2019-11-27T08:17:40.8068252+00:00",
		"state": 1,
		"project_id": 53,
		"performer_id": 50
	},
	{
		"id": 174,
		"name": "Laudantium nulla vero tenetur.",
		"description": "Eum sit aut.\nSed omnis nam.\nReiciendis sunt odit similique quo ut aut.",
		"created_at": "2019-06-18T16:34:15.5072196+00:00",
		"finished_at": "2019-06-24T14:05:57.8831404+00:00",
		"state": 1,
		"project_id": 90,
		"performer_id": 20
	},
	{
		"id": 175,
		"name": "Et accusantium ea cum amet nesciunt temporibus amet nulla.",
		"description": "Distinctio nihil reiciendis possimus ratione dolores.\nAliquam voluptatem nostrum.",
		"created_at": "2019-06-19T02:58:18.7557492+00:00",
		"finished_at": "2019-08-21T17:55:41.3022762+00:00",
		"state": 0,
		"project_id": 81,
		"performer_id": 24
	},
	{
		"id": 176,
		"name": "Vel sapiente et.",
		"description": "Consequatur odio odio est itaque.\nMinima alias velit.",
		"created_at": "2019-06-19T10:07:33.8939843+00:00",
		"finished_at": "2020-06-02T09:39:03.1837325+00:00",
		"state": 3,
		"project_id": 79,
		"performer_id": 36
	},
	{
		"id": 177,
		"name": "Aut qui sunt aut ut culpa laborum eveniet velit adipisci.",
		"description": "Mollitia culpa velit id in maiores aliquid veniam adipisci.\nVoluptates aut doloribus at quia illum qui.\nVoluptas veritatis placeat ex voluptatum amet nisi eum.\nAccusantium corrupti nobis et eum quia quia nobis incidunt.\nNihil doloremque tenetur et.",
		"created_at": "2019-06-18T14:33:37.8085124+00:00",
		"finished_at": "2020-02-24T10:32:13.2814812+00:00",
		"state": 3,
		"project_id": 9,
		"performer_id": 36
	},
	{
		"id": 178,
		"name": "Velit facere omnis saepe aspernatur suscipit vero quia velit deserunt.",
		"description": "Placeat incidunt voluptas autem excepturi eligendi.\nHarum libero ipsum aut in debitis expedita.",
		"created_at": "2019-06-19T05:59:36.6373839+00:00",
		"finished_at": "2019-07-27T04:16:48.6341873+00:00",
		"state": 1,
		"project_id": 55,
		"performer_id": 37
	},
	{
		"id": 179,
		"name": "Delectus voluptatibus ipsum.",
		"description": "Tempora enim veniam quisquam.\nSed exercitationem necessitatibus error vel.\nVoluptate rerum voluptatem voluptatem ut.\nNemo sit est non repudiandae inventore necessitatibus inventore repudiandae velit.",
		"created_at": "2019-06-19T00:44:09.4035947+00:00",
		"finished_at": "2019-09-14T03:58:11.4933429+00:00",
		"state": 1,
		"project_id": 85,
		"performer_id": 37
	},
	{
		"id": 180,
		"name": "Velit alias enim et qui quia accusamus soluta.",
		"description": "Dicta omnis aliquam alias.\nA iste voluptas est enim dolorem amet.\nVoluptatem et possimus sint enim aliquam reprehenderit.",
		"created_at": "2019-06-19T03:22:50.9704967+00:00",
		"finished_at": "2020-01-12T19:20:28.3903574+00:00",
		"state": 3,
		"project_id": 76,
		"performer_id": 49
	},
	{
		"id": 181,
		"name": "Esse perferendis vel non consequuntur.",
		"description": "Et quia eum aut suscipit nostrum qui molestiae vero.\nIure sit cupiditate ut molestiae eaque ipsam voluptatibus quas.\nOmnis maiores vitae hic facere nobis vitae reiciendis.",
		"created_at": "2019-06-19T07:40:05.0477539+00:00",
		"finished_at": "2020-03-31T02:37:56.6642032+00:00",
		"state": 1,
		"project_id": 93,
		"performer_id": 36
	},
	{
		"id": 182,
		"name": "Et quia dolorem fuga dignissimos.",
		"description": "Architecto velit eos adipisci amet.\nQuo accusamus itaque odio consectetur.\nUnde tempora dignissimos consequuntur iusto.",
		"created_at": "2019-06-19T08:07:03.69578+00:00",
		"finished_at": "2019-07-09T18:52:01.9772697+00:00",
		"state": 3,
		"project_id": 9,
		"performer_id": 29
	},
	{
		"id": 183,
		"name": "Ut aut qui dolores et ea.",
		"description": "Neque molestiae dolores.\nDeleniti sunt earum facere error laboriosam.\nOdit commodi aut dolorem ut.",
		"created_at": "2019-06-19T02:10:17.4432489+00:00",
		"finished_at": "2020-02-10T15:33:40.0659893+00:00",
		"state": 0,
		"project_id": 45,
		"performer_id": 6
	},
	{
		"id": 184,
		"name": "Rem reprehenderit corporis blanditiis.",
		"description": "Rerum et et.\nMinima ut qui eos placeat officiis sit soluta repellendus.\nQuo inventore quaerat totam earum.\nNihil dolores voluptas.\nLaborum commodi cupiditate delectus nemo doloremque id similique.",
		"created_at": "2019-06-18T12:28:41.161012+00:00",
		"finished_at": "2019-11-02T19:06:42.8260595+00:00",
		"state": 2,
		"project_id": 57,
		"performer_id": 35
	},
	{
		"id": 185,
		"name": "Et qui reprehenderit ducimus corporis sit.",
		"description": "In vel perferendis.\nSit ipsa amet.",
		"created_at": "2019-06-19T02:12:16.7619613+00:00",
		"finished_at": "2019-09-16T15:30:59.7778496+00:00",
		"state": 0,
		"project_id": 75,
		"performer_id": 46
	},
	{
		"id": 186,
		"name": "Cumque dolorem quibusdam iusto laudantium.",
		"description": "Et unde ipsam et provident.\nEst est vel rerum praesentium nisi possimus.\nEt ut iusto quidem.\nNulla odit eos unde beatae.\nAlias iusto quia dolor illum modi velit iusto quod repellendus.",
		"created_at": "2019-06-19T07:32:42.1294909+00:00",
		"finished_at": "2020-04-19T13:16:31.6939307+00:00",
		"state": 2,
		"project_id": 95,
		"performer_id": 3
	},
	{
		"id": 187,
		"name": "Molestias nobis voluptas natus.",
		"description": "Esse similique nemo ut similique officiis neque voluptatum repellat.\nReiciendis non dolorem in.\nError esse ab voluptates sit ducimus provident facilis ut quo.\nVel vel sunt id voluptatem voluptas praesentium est voluptates.",
		"created_at": "2019-06-18T13:26:15.2934975+00:00",
		"finished_at": "2019-07-27T07:34:59.1008289+00:00",
		"state": 2,
		"project_id": 28,
		"performer_id": 16
	},
	{
		"id": 188,
		"name": "Iure reprehenderit dicta dolores quasi occaecati quos dolor illo.",
		"description": "Veritatis minus atque non debitis.\nNon laboriosam aut molestiae.\nCumque quod quos.",
		"created_at": "2019-06-19T00:32:24.9544459+00:00",
		"finished_at": "2019-08-27T21:10:35.6873147+00:00",
		"state": 2,
		"project_id": 35,
		"performer_id": 11
	},
	{
		"id": 189,
		"name": "Illo velit facere similique tenetur et.",
		"description": "Beatae similique natus voluptatem.\nId architecto enim est non enim accusantium quis.\nVoluptatibus aut et autem sint debitis.",
		"created_at": "2019-06-19T01:13:56.167642+00:00",
		"finished_at": "2019-08-10T04:20:00.9146562+00:00",
		"state": 3,
		"project_id": 85,
		"performer_id": 34
	},
	{
		"id": 190,
		"name": "Voluptate ut quas.",
		"description": "Delectus dolores dolor quia eos repellendus ipsam vel.\nEos quia totam quos officia placeat.\nMinima facilis modi.\nQuibusdam voluptatem consequatur consequatur facere est.\nMinima id et voluptas.",
		"created_at": "2019-06-19T09:34:35.4420886+00:00",
		"finished_at": "2019-08-30T19:17:36.573994+00:00",
		"state": 3,
		"project_id": 90,
		"performer_id": 47
	},
	{
		"id": 191,
		"name": "Sunt qui tempora praesentium nemo voluptatem est tempora sit incidunt.",
		"description": "Error inventore perspiciatis aut praesentium voluptas quae.\nError ducimus aut ut hic earum assumenda.\nNihil qui laborum eaque non.\nUllam explicabo inventore tenetur dicta ut sit iure.",
		"created_at": "2019-06-18T20:02:20.2487116+00:00",
		"finished_at": "2019-08-07T07:22:04.8838427+00:00",
		"state": 0,
		"project_id": 40,
		"performer_id": 12
	},
	{
		"id": 192,
		"name": "Commodi cupiditate qui harum repudiandae repellendus similique ullam accusamus culpa.",
		"description": "Beatae unde rem sed occaecati cupiditate ea.\nOmnis ducimus ipsa molestias facere ratione vel dolor blanditiis rerum.\nEst deleniti praesentium aut est modi.\nAut dolorem ducimus et a.",
		"created_at": "2019-06-19T08:26:47.3269521+00:00",
		"finished_at": "2019-08-21T16:30:29.6557301+00:00",
		"state": 2,
		"project_id": 61,
		"performer_id": 41
	},
	{
		"id": 193,
		"name": "Tempora quia maxime voluptatem.",
		"description": "Inventore itaque magnam omnis et vitae dolorum odio.\nVoluptatibus labore porro consectetur et at corrupti sequi.",
		"created_at": "2019-06-18T18:28:48.4898871+00:00",
		"finished_at": "2020-01-17T09:44:00.462318+00:00",
		"state": 2,
		"project_id": 12,
		"performer_id": 16
	},
	{
		"id": 194,
		"name": "Sed omnis ab et doloribus provident quia possimus eius.",
		"description": "Neque quas cumque quisquam molestias.\nUt impedit consequuntur et dignissimos sed.\nNumquam aut voluptas culpa.\nRatione eligendi sit blanditiis in aliquid voluptas sint.\nVoluptatem recusandae est aut dolor nihil voluptatem sed voluptatum.\nRepellat nobis quae aut dolor accusantium facilis.",
		"created_at": "2019-06-18T15:14:44.6131341+00:00",
		"finished_at": "2020-05-14T17:05:56.5996027+00:00",
		"state": 3,
		"project_id": 93,
		"performer_id": 36
	},
	{
		"id": 195,
		"name": "Qui dolor consequatur.",
		"description": "Nihil est voluptatum corrupti ut dolores ipsa.\nVoluptas temporibus qui asperiores aut consequatur omnis molestiae.\nSimilique facilis consequatur maxime qui earum sed quo nihil atque.\nEum unde consectetur ipsa.",
		"created_at": "2019-06-19T03:19:56.1538338+00:00",
		"finished_at": "2020-06-03T07:23:28.0350398+00:00",
		"state": 2,
		"project_id": 52,
		"performer_id": 8
	},
	{
		"id": 196,
		"name": "Ab voluptatem eos quis vero quod ipsum expedita assumenda.",
		"description": "Sed rerum dolor expedita velit voluptate minima.\nDolor enim modi pariatur nemo fugiat ea et voluptas perferendis.\nPariatur dolor animi ut ut est harum unde debitis.",
		"created_at": "2019-06-18T20:47:54.2526426+00:00",
		"finished_at": "2019-12-22T05:08:44.949249+00:00",
		"state": 0,
		"project_id": 56,
		"performer_id": 40
	},
	{
		"id": 197,
		"name": "Aspernatur eos assumenda autem omnis ullam molestiae sequi quia.",
		"description": "Id accusamus quia consectetur molestias tempore est expedita cupiditate.\nAnimi ea minima aut omnis vero in tempora minus.\nCommodi voluptatum qui sunt amet.\nArchitecto itaque et exercitationem incidunt adipisci vel accusantium ipsa voluptas.\nNobis voluptatem autem velit sed.",
		"created_at": "2019-06-18T22:33:34.9552438+00:00",
		"finished_at": "2019-11-15T00:59:50.9103456+00:00",
		"state": 2,
		"project_id": 52,
		"performer_id": 22
	},
	{
		"id": 198,
		"name": "Quo sapiente ea aut nesciunt harum.",
		"description": "Excepturi animi tempore.\nIncidunt non voluptate deserunt aliquam delectus perferendis.",
		"created_at": "2019-06-19T08:38:32.8140279+00:00",
		"finished_at": "2019-11-19T13:01:18.1364124+00:00",
		"state": 1,
		"project_id": 42,
		"performer_id": 48
	},
	{
		"id": 199,
		"name": "Aperiam qui sunt dolorum rerum.",
		"description": "Qui voluptates occaecati quis.\nRepudiandae ut nostrum soluta placeat omnis id.\nLaborum similique minus quia quia autem quis.\nOdio ea ipsam iste ex dolores.\nMagni officia eveniet.",
		"created_at": "2019-06-18T20:55:40.9413915+00:00",
		"finished_at": "2019-10-13T09:27:51.4361146+00:00",
		"state": 0,
		"project_id": 6,
		"performer_id": 38
	},
	{
		"id": 200,
		"name": "Nesciunt esse minima neque sunt at dolores nihil nesciunt.",
		"description": "Culpa qui unde sit.\nEius et dolores cupiditate ex optio cumque omnis quia.",
		"created_at": "2019-06-18T19:45:01.182528+00:00",
		"finished_at": "2019-08-28T16:33:05.028776+00:00",
		"state": 2,
		"project_id": 85,
		"performer_id": 48
	}
]